vivado/project_data/vivado_work.sim/sim_1/behav/xsim/dump.vcd
$date
   Tue Jun 23 08:42:50 2026
$end

$version
  2023.2
$end

$timescale
  1ps
$end

$scope module tb_riscv_pipeline $end
$var reg 1 ! CLK $end
$var reg 1 " RESET $end
$var wire 32 # w_pc_decode [31:0] $end
$var wire 32 $ w_instr_decode [31:0] $end
$var wire 32 % w_alu_result_exec [31:0] $end
$var wire 32 & tb_cpu_srcAE [31:0] $end
$var wire 32 ' tb_cpu_srcBE [31:0] $end
$var wire 32 ( tb_Imm_Ext_E [31:0] $end
$var wire 32 ) w_mem_write_data [31:0] $end
$var wire 32 * w_wb_result [31:0] $end
$var wire 5 + w_wb_rd [4:0] $end
$var wire 1 , w_ctrl_regwrite $end
$var wire 1 - w_ctrl_memwrite $end
$var wire 1 . w_ctrl_branch $end
$var wire 1 / w_ctrl_memtoreg $end
$var wire 1 0 w_ctrl_alusrc $end
$var wire 1 1 w_haz_stallF $end
$var wire 1 2 w_haz_stallD $end
$var wire 1 3 w_haz_flushD $end
$var wire 1 4 w_haz_flushE $end
$var wire 2 5 w_haz_forwardAE [1:0] $end
$var wire 2 6 w_haz_forwardBE [1:0] $end
$var integer 32 7 cycle_count [31:0] $end
$scope module uut $end
$var wire 1 8 CLK $end
$var wire 1 9 RESET $end
$var wire 32 # o_pc_decode [31:0] $end
$var wire 32 $ o_instr_decode [31:0] $end
$var wire 32 % o_alu_result_exec [31:0] $end
$var wire 32 ) o_mem_write_data [31:0] $end
$var wire 32 & o_cpu_srcAE [31:0] $end
$var wire 32 ' o_cpu_srcBE [31:0] $end
$var wire 32 ( o_Imm_Ext_E [31:0] $end
$var wire 32 * o_wb_result [31:0] $end
$var wire 5 + o_wb_rd [4:0] $end
$var wire 1 , o_ctrl_regwrite $end
$var wire 1 - o_ctrl_memwrite $end
$var wire 1 . o_ctrl_branch $end
$var wire 1 / o_ctrl_memtoreg $end
$var wire 1 0 o_ctrl_alusrc $end
$var wire 1 1 o_haz_stallF $end
$var wire 1 2 o_haz_stallD $end
$var wire 1 3 o_haz_flushD $end
$var wire 1 4 o_haz_flushE $end
$var wire 2 5 o_haz_forwardAE [1:0] $end
$var wire 2 6 o_haz_forwardBE [1:0] $end
$var wire 32 : InStrD [31:0] $end
$var wire 32 ; PCD [31:0] $end
$var wire 32 < PCPlus4D [31:0] $end
$var wire 1 = RegWriteE_s $end
$var wire 1 > MemWriteE_s $end
$var wire 1 ? MemtoRegE_s $end
$var wire 1 @ BranchE_s $end
$var wire 1 A JalE_s $end
$var wire 1 B JalrE_s $end
$var wire 1 C ALUSrcE_s $end
$var wire 2 D ResultSrcE_s [1:0] $end
$var wire 5 E ALUControlE_s [4:0] $end
$var wire 5 F ShamtE_s [4:0] $end
$var wire 32 G RD1E_s [31:0] $end
$var wire 32 H RD2E_s [31:0] $end
$var wire 32 I PCE_s [31:0] $end
$var wire 32 J Imm_Ext_E_s [31:0] $end
$var wire 32 K PCPlus4E_s [31:0] $end
$var wire 5 L RS1E_s [4:0] $end
$var wire 5 M RS2E_s [4:0] $end
$var wire 5 N RDE_s [4:0] $end
$var wire 5 O RS1D_s [4:0] $end
$var wire 5 P RS2D_s [4:0] $end
$var wire 1 Q RegWriteW_s $end
$var wire 5 R RDW_s [4:0] $end
$var wire 32 S ResultW_s [31:0] $end
$var wire 2 T ResultSrcW_s [1:0] $end
$var wire 2 U PCSrcE_s [1:0] $end
$var wire 32 V PCTargetE_s [31:0] $end
$var wire 32 W ResultE_s [31:0] $end
$var wire 32 X ALUResultM_s [31:0] $end
$var wire 32 Y WriteDataM_s [31:0] $end
$var wire 1 Z RegWriteM_s $end
$var wire 1 [ MemWriteM_s $end
$var wire 2 \ ResultSrcM_s [1:0] $end
$var wire 5 ] RDM_s [4:0] $end
$var wire 32 ^ PCPlus4M_s [31:0] $end
$var wire 32 _ AluResultW_s [31:0] $end
$var wire 32 ` ReaddataW_s [31:0] $end
$var wire 32 a PCPlus4W_s [31:0] $end
$var wire 1 b StallF_s $end
$var wire 1 c StallD_s $end
$var wire 1 d FlushD_s $end
$var wire 1 e FlushE_s $end
$var wire 2 f ForwardAE_s [1:0] $end
$var wire 2 g ForwardBE_s [1:0] $end
$var wire 1 h enableF_s $end
$var wire 1 i enableD_s $end
$scope module u_if $end
$var wire 1 8 CLK $end
$var wire 1 9 RESET $end
$var wire 2 U PCSrcE [1:0] $end
$var wire 32 V PCTargetE [31:0] $end
$var wire 32 W ResultE [31:0] $end
$var wire 1 h enableF $end
$var wire 1 i enableD $end
$var wire 1 d clearD $end
$var reg 32 j InStrD [31:0] $end
$var reg 32 k PCD [31:0] $end
$var reg 32 l PCPlus4D [31:0] $end
$var reg 32 m PC_reg [31:0] $end
$var wire 32 n PC_next [31:0] $end
$var wire 32 o PC_current [31:0] $end
$var wire 32 p PCPlus4F [31:0] $end
$var wire 32 q InStrF [31:0] $end
$upscope $end
$scope module u_id $end
$var wire 1 8 CLK $end
$var wire 1 9 RESET $end
$var wire 32 : InstrD [31:0] $end
$var wire 32 ; PCD [31:0] $end
$var wire 32 < PCPlus4D [31:0] $end
$var wire 1 Q RegWriteW $end
$var wire 5 R RDW [4:0] $end
$var wire 32 S ResultW [31:0] $end
$var wire 1 e ClearE $end
$var reg 1 r RegWriteE $end
$var reg 2 s ResultSrcE [1:0] $end
$var reg 1 t MemWriteE $end
$var reg 1 u MemtoRegE $end
$var reg 1 v BranchE $end
$var reg 1 w JalE $end
$var reg 1 x JalrE $end
$var reg 1 y ALUSrcE $end
$var reg 5 z ALUControlE [4:0] $end
$var reg 5 { ShamtE [4:0] $end
$var reg 32 | RD1E [31:0] $end
$var reg 32 } RD2E [31:0] $end
$var reg 32 ~ PCE [31:0] $end
$var reg 32 !! Imm_Ext_E [31:0] $end
$var reg 32 "! PCPlus4E [31:0] $end
$var reg 5 #! RS1E [4:0] $end
$var reg 5 $! RS2E [4:0] $end
$var reg 5 %! RDE [4:0] $end
$var wire 5 O RS1D [4:0] $end
$var wire 5 P RS2D [4:0] $end
$var wire 7 &! op [6:0] $end
$var wire 3 '! funct3 [2:0] $end
$var wire 7 (! funct7 [6:0] $end
$var wire 5 )! rs1 [4:0] $end
$var wire 5 *! rs2 [4:0] $end
$var wire 5 +! rd [4:0] $end
$var wire 5 ,! shamt [4:0] $end
$var wire 1 -! RegWriteD $end
$var wire 2 .! ResultSrcD [1:0] $end
$var wire 1 /! MemWriteD $end
$var wire 1 0! MemtoRegD $end
$var wire 1 1! BranchD $end
$var wire 1 2! JalD $end
$var wire 1 3! JalrD $end
$var wire 1 4! ALUSrcD $end
$var wire 2 5! ImmSrcD [1:0] $end
$var wire 2 6! ALUOpD [1:0] $end
$var wire 5 7! ALUControlD [4:0] $end
$var wire 32 8! RD1D [31:0] $end
$var wire 32 9! RD2D [31:0] $end
$var wire 32 :! ImmExtD [31:0] $end
$scope module u_ctrl $end
$var wire 7 &! op [6:0] $end
$var wire 3 '! funct3 [2:0] $end
$var wire 7 (! funct7 [6:0] $end
$var reg 1 ;! RegWrite $end
$var reg 2 <! ResultSrc [1:0] $end
$var reg 1 =! MemWrite $end
$var reg 1 >! MemtoReg $end
$var reg 1 ?! Branch $end
$var reg 1 @! Jal $end
$var reg 1 A! Jalr $end
$var reg 1 B! ALUSrc $end
$var reg 2 C! ImmSrc [1:0] $end
$var reg 5 D! ALUControl [4:0] $end
$var reg 2 E! ALUOp [1:0] $end
$var wire 3 F! aluop_combo [2:0] $end
$upscope $end
$scope module u_regfile $end
$var wire 1 8 CLK $end
$var wire 1 Q write_enable $end
$var wire 5 )! read_rs1 [4:0] $end
$var wire 5 *! read_rs2 [4:0] $end
$var wire 5 R write_reg [4:0] $end
$var wire 32 S write_data [31:0] $end
$var wire 32 8! read_data_rs1 [31:0] $end
$var wire 32 9! read_data_rs2 [31:0] $end
$var integer 32 G! i [31:0] $end
$upscope $end
$scope module u_extend $end
$var wire 25 H! Instr [31:7] $end
$var wire 2 5! ImmSrc [1:0] $end
$var reg 32 I! ImmExt [31:0] $end
$upscope $end
$upscope $end
$scope module u_ex $end
$var wire 1 8 CLK $end
$var wire 1 9 RESET $end
$var wire 1 = RegWriteE $end
$var wire 2 D ResultSrcE [1:0] $end
$var wire 1 > MemWriteE $end
$var wire 1 @ BranchE $end
$var wire 1 A JalE $end
$var wire 1 B JalrE $end
$var wire 1 C ALUSrcE $end
$var wire 5 E ALUControlE [4:0] $end
$var wire 5 F ShamtE [4:0] $end
$var wire 32 G RD1E [31:0] $end
$var wire 32 H RD2E [31:0] $end
$var wire 32 I PCE [31:0] $end
$var wire 32 J Imm_Ext_E [31:0] $end
$var wire 32 K PCPlus4E [31:0] $end
$var wire 5 N RDE [4:0] $end
$var wire 5 L RS1E [4:0] $end
$var wire 5 M RS2E [4:0] $end
$var wire 2 f ForwardAE [1:0] $end
$var wire 2 g ForwardBE [1:0] $end
$var wire 32 X ALUResultM_fwd [31:0] $end
$var wire 32 S ResultW_fwd [31:0] $end
$var wire 2 U PCSrcE [1:0] $end
$var wire 32 V PCTargetE [31:0] $end
$var wire 32 W ResultE [31:0] $end
$var reg 32 J! ALUResultM [31:0] $end
$var reg 32 K! WriteDataM [31:0] $end
$var reg 1 L! RegWriteM $end
$var reg 1 M! MemWriteM $end
$var reg 2 N! ResultSrcM [1:0] $end
$var reg 5 O! RDM [4:0] $end
$var reg 32 P! PCPlus4M [31:0] $end
$var reg 32 Q! SrcA_raw [31:0] $end
$var reg 32 R! SrcB_reg_fwd [31:0] $end
$var wire 32 S! SrcB [31:0] $end
$var wire 32 T! ALUResult [31:0] $end
$var wire 1 U! Zero $end
$scope module u_alu $end
$var wire 32 V! SrcA [31:0] $end
$var wire 32 S! SrcB [31:0] $end
$var wire 5 E ALUControl [4:0] $end
$var wire 5 F Shamt [4:0] $end
$var reg 32 W! ALUResult [31:0] $end
$var wire 1 U! Zero $end
$upscope $end
$scope module u_pcsrc $end
$var wire 1 U! Zero $end
$var wire 1 @ BranchE $end
$var wire 1 A JalE $end
$var wire 1 B JalrE $end
$var wire 5 E ALUControlE [4:0] $end
$var reg 2 X! PCSrcE [1:0] $end
$var reg 1 Y! branch_taken $end
$upscope $end
$upscope $end
$scope module u_ma $end
$var wire 1 8 CLK $end
$var wire 1 9 RESET $end
$var wire 1 Z RegWriteM $end
$var wire 2 \ ResultSrcM [1:0] $end
$var wire 1 [ MemWriteM $end
$var wire 32 X AluResultM [31:0] $end
$var wire 32 Y WriteDataM [31:0] $end
$var wire 5 ] RDM [4:0] $end
$var wire 32 ^ PCPlus4M [31:0] $end
$var reg 1 Z! RegWriteW $end
$var reg 2 [! ResultSrcW [1:0] $end
$var reg 32 \! AluResultW [31:0] $end
$var reg 32 ]! ReaddataW [31:0] $end
$var reg 5 ^! RDW [4:0] $end
$var reg 32 _! PCPlus4W [31:0] $end
$var wire 5 `! RDM_out [4:0] $end
$var integer 32 a! i [31:0] $end
$var wire 32 b! ReadData [31:0] $end
$upscope $end
$scope module u_wb $end
$var wire 1 Q RegWriteW $end
$var wire 2 T ResultSrcW [1:0] $end
$var wire 32 _ AluResultW [31:0] $end
$var wire 32 ` ReaddataW [31:0] $end
$var wire 32 a PCPlus4W [31:0] $end
$var wire 5 R RDW_in [4:0] $end
$var reg 32 c! ResultW [31:0] $end
$var wire 5 d! RDW [4:0] $end
$var wire 1 e! RegWriteW_out $end
$upscope $end
$scope module u_haz $end
$var wire 1 ? MemtoRegE $end
$var wire 5 O RS1D [4:0] $end
$var wire 5 P RS2D [4:0] $end
$var wire 5 N RDE [4:0] $end
$var wire 5 L RS1E [4:0] $end
$var wire 5 M RS2E [4:0] $end
$var wire 5 ] RDM [4:0] $end
$var wire 5 R RDW [4:0] $end
$var wire 1 Z RegWriteM $end
$var wire 1 Q RegWriteW $end
$var wire 2 U PCSrcE [1:0] $end
$var wire 1 9 RESET $end
$var reg 1 f! StallF $end
$var reg 1 g! StallD $end
$var reg 1 h! FlushD $end
$var reg 1 i! FlushE $end
$var reg 2 j! ForwardAE [1:0] $end
$var reg 2 k! ForwardBE [1:0] $end
$var wire 1 l! lw_stall $end
$upscope $end
$upscope $end
$upscope $end
$enddefinitions $end

#0
$dumpvars
0!
b0 !!
1"
b0 "!
b0 #
b0 #!
b10011 $
b0 $!
b0 %
b0 %!
b0 &
b10011 &!
b0 '
b0 '!
b0 (
b0 (!
b0 )
b0 )!
b0 *
b0 *!
b0 +
b0 +!
0,
b0 ,!
0-
1-!
0.
b0 .!
0/
0/!
00
00!
01
01!
02
02!
03
03!
04
14!
b0 5
b0 5!
b0 6
bz 6!
b0 7
b110 7!
08
b0 8!
19
b0 9!
b10011 :
b0 :!
b0 ;
1;!
b0 <
b0 <!
0=
0=!
0>
0>!
0?
0?!
0@
0@!
0A
0A!
0B
1B!
0C
b0 C!
b0 D
b110 D!
b0 E
b10 E!
b0 F
b0 F!
b0 G
bx G!
b0 H
b0 H!
b0 I
b0 I!
b0 J
b0 J!
b0 K
b0 K!
b0 L
0L!
b0 M
0M!
b0 N
b0 N!
b0 O
b0 O!
b0 P
b0 P!
0Q
b0 Q!
b0 R
b0 R!
b0 S
b0 S!
b0 T
b0 T!
b0 U
1U!
b0 V
b0 V!
b0 W
b0 W!
b0 X
b0 X!
b0 Y
0Y!
0Z
0Z!
0[
b0 [!
b0 \
b0 \!
b0 ]
b0 ]!
b0 ^
b0 ^!
b0 _
b0 _!
b0 `
b0 `!
b0 a
b100000000 a!
0b
b10101010 b!
0c
b0 c!
0d
b0 d!
0e
0e!
b0 f
0f!
b0 g
0g!
1h
0h!
1i
0i!
b10011 j
b0 j!
b0 k
b0 k!
b0 l
0l!
b0 m
b100 n
b0 o
b100 p
b10100000000000010010011 q
0r
b0 s
0t
0u
0v
0w
0x
0y
b0 z
b0 {
b0 |
b0 }
b0 ~
$end

#5000
1!
18

#10000
0!
08

#15000
1!
0"
b10100000000000010010011 $
b101 *!
b1 +!
b101 ,!
10
b1 7
18
09
b101 9!
b10100000000000010010011 :
b101 :!
b100 <
1=
1C
b110 E
b1010000000000001 H!
b101 I!
b101 P
b10101010 ]!
b10101010 `
b10100000000000010010011 j
b100 l
b100 m
b1000 n
b100 o
b1000 p
b1100000000000100010011 q
1r
1y
b110 z

#20000
0!
08

#25000
1!
b101 !!
b100 "!
b100 #
b1100000000000100010011 $
b101 $!
b101 %
b1 %!
b101 '
b101 (
b11 *!
b10 +!
b11 ,!
b10 7
18
b11 9!
b1100000000000100010011 :
b11 :!
b100 ;
b1000 <
b101 F
b101 H
b110000000000010 H!
b11 I!
b101 J
b100 K
1L!
b101 M
b1 N
b11 P
b101 R!
b101 S!
b101 T!
0U!
b101 V
b101 W
b101 W!
1Z
b1100000000000100010011 j
b100 k
b1000 l
b1000 m
b1100 n
b1000 o
b1100 p
b1000001000000110110011 q
b101 {
b101 }

#30000
0!
08

#35000
1!
b11 !!
b1000 "!
b1000 #
b1000001000000110110011 $
b11 $!
b11 %
b10 %!
b110011 &!
b11 '
b11 (
b101 )
b1 )!
b10 *!
b11 +!
1,
b10 ,!
04!
b11 7
18
b1 8!
b10 9!
b1000001000000110110011 :
b10 :!
b1000 ;
1;!
b1100 <
0B!
b110 D!
b10 E!
b11 F
b100 F!
b11 H
b100000100000011 H!
b100 I
b10 I!
b11 J
b101 J!
b1000 K
b101 K!
b11 M
b10 N
b1 O
b1 O!
b10 P
b100 P!
1Q
b11 R!
b11 S!
b11 T!
b111 V
b11 W
b11 W!
b101 X
b101 Y
1Z!
b1 ]
b100 ^
b1 `!
b10111011 b!
1e!
b1000001000000110110011 j
b1000 k
b1100 l
b1100 m
b10000 n
b1100 o
b10000 p
b1000000001000011000001000110011 q
b11 {
b11 }
b100 ~

#40000
0!
08

#45000
1!
b10 !!
b1100 "!
b1100 #
b1 #!
b1000000001000011000001000110011 $
b10 $!
b1000 %
b11 %!
b1 &
b10 '
b10 (
b100000 (!
b11 )
b11 )!
b101 *
b1 +
b100 +!
00
b1 5
b10 6
b100 7
b111 7!
18
b11 8!
b1000000001000011000001000110011 :
b10000000010 :!
b1100 ;
b10000 <
0C
b111 D!
b10 F
b110 F!
b1 G
b10 H
b100000000100001100000100 H!
b1000 I
b10000000010 I!
b10 J
b11 J!
b1100 K
b11 K!
b1 L
b10 M
b11 N
b11 O
b10 O!
b1000 P!
b101 Q!
b1 R
b11 R!
b101 S
b11 S!
b1000 T!
b1010 V
b101 V!
b1000 W
b1000 W!
b11 X
b11 Y
b101 \!
b10 ]
b10111011 ]!
b1000 ^
b1 ^!
b101 _
b100 _!
b10111011 `
b10 `!
b100 a
b10101010 b!
b101 c!
b1 d!
b1 f
b10 g
b1000000001000011000001000110011 j
b1 j!
b1100 k
b10 k!
b10000 l
b10000 m
b10100 n
b10000 o
b10100 p
b1000001111001010110011 q
0y
b10 {
b1 |
b10 }
b1000 ~

#50000
0!
08

#55000
1!
b10000000010 !!
b10000 "!
b10000 #
b11 #!
b1000001111001010110011 $
b101 %
b100 %!
b11 &
b111 '!
b10000000010 (
b0 (!
b1 )!
b11 *
b10 +
b101 +!
b10 5
b1 6
b101 7
b10001 7!
18
b101 8!
b11 9!
b1000001111001010110011 :
b10 :!
b10000 ;
b10100 <
b10001 D!
b111 E
b100 F!
b11 G
b100000111100101 H!
b1100 I
b10 I!
b10000000010 J
b1000 J!
b10000 K
b11 L
b100 N
b1 O
b11 O!
b1100 P!
b1000 Q!
b10 R
b11 R!
b11 S
b11 S!
b101 T!
b10000001110 V
b1000 V!
b101 W
b101 W!
b1000 X
b11 \!
b11 ]
b10101010 ]!
b1100 ^
b10 ^!
b11 _
b1000 _!
b10101010 `
b11 `!
b1000 a
b11001100 b!
b11 c!
b10 d!
b10 f
b1 g
b1000001111001010110011 j
b10 j!
b10000 k
b1 k!
b10100 l
b10100 m
b11000 n
b10100 o
b11000 p
b1000001110001100110011 q
b111 z
b11 |
b1100 ~

#60000
0!
08

#65000
1!
b10 !!
b10100 "!
b10100 #
b1 #!
b1000001110001100110011 $
b1 %
b101 %!
b101 &
b11 '
b110 '!
b10 (
b1000 *
b11 +
b110 +!
b0 5
b0 6
b110 7
b10000 7!
18
b1000001110001100110011 :
b10100 ;
b11000 <
b10000 D!
b10001 E
b101 G
b11 H
b100000111000110 H!
b10000 I
b10 J
b101 J!
b10100 K
b1 L
b101 N
b100 O!
b10000 P!
b101 Q!
b11 R
b1000 S
b1 T!
0U!
b10010 V
b101 V!
b1 W
b1 W!
b101 X
b1000 \!
b100 ]
b11001100 ]!
b10000 ^
b11 ^!
b1000 _
b1100 _!
b11001100 `
b100 `!
b1100 a
b10111011 b!
b1000 c!
b11 d!
b0 f
b0 g
b1000001110001100110011 j
b0 j!
b10100 k
b0 k!
b11000 l
b11000 m
b11100 n
b11000 o
b11100 p
b1000001100001110110011 q
b10001 z
b101 |
b11 }
b10000 ~

#70000
0!
08

#75000
1!
b11000 "!
b11000 #
b1000001100001110110011 $
b111 %
b110 %!
b100 '!
b101 *
b100 +
b111 +!
b111 7
b1011 7!
18
b1000001100001110110011 :
b11000 ;
b11100 <
b1011 D!
b10000 E
b100000110000111 H!
b10100 I
b1 J!
b11000 K
b110 N
b101 O!
b10100 P!
b100 R
b101 S
b111 T!
b10110 V
b111 W
b111 W!
b1 X
b101 \!
b101 ]
b10111011 ]!
b10100 ^
b100 ^!
b101 _
b10000 _!
b10111011 `
b101 `!
b10000 a
b10101010 b!
b101 c!
b100 d!
b1000001100001110110011 j
b11000 k
b11100 l
b11100 m
b100000 n
b11100 o
b100000 p
b1000001001010000110011 q
b10000 z
b10100 ~

#80000
0!
08

#85000
1!
b11100 "!
b11100 #
b1000001001010000110011 $
b110 %
b111 %!
b1 '!
b1 *
b101 +
b1000 +!
b1000 7
b1000 7!
18
b1000001001010000110011 :
b11100 ;
b100000 <
b1000 D!
b1011 E
b100000100101000 H!
b11000 I
b111 J!
b11100 K
b111 N
b110 O!
b11000 P!
b101 R
b1 S
b110 T!
b11010 V
b110 W
b110 W!
b111 X
b1 \!
b110 ]
b10101010 ]!
b11000 ^
b101 ^!
b1 _
b10100 _!
b10101010 `
b110 `!
b10100 a
b10111011 b!
b1 c!
b101 d!
b1000001001010000110011 j
b11100 k
b100000 l
b100000 m
b100100 n
b100000 o
b100100 p
b110010000000000010010010011 q
b1011 z
b11000 ~

#90000
0!
08

#95000
1!
b100000 "!
b100000 #
b110010000000000010010010011 $
b101000 %
b1000 %!
b10011 &!
b0 '!
b11 (!
b0 )!
b111 *
b100 *!
b110 +
b1001 +!
b100 ,!
14!
b1001 7
b110 7!
18
b0 8!
b101 9!
b110010000000000010010010011 :
b1100100 :!
b100000 ;
1;!
b100100 <
1B!
b110 D!
b1000 E
b10 E!
b0 F!
b11001000000000001001 H!
b11100 I
b1100100 I!
b110 J!
b100000 K
b1000 N
b0 O
b111 O!
b100 P
b11100 P!
b110 R
b111 S
b101000 T!
b11110 V
b101000 W
b101000 W!
b110 X
b111 \!
b111 ]
b10111011 ]!
b11100 ^
b110 ^!
b111 _
b11000 _!
b10111011 `
b111 `!
b11000 a
b111 c!
b110 d!
b110010000000000010010010011 j
b100000 k
b100100 l
b100100 m
b101000 n
b100100 o
b101000 p
b101001000000000100011 q
b1000 z
b11100 ~

#100000
0!
08

#105000
1!
b1100100 !!
b100100 "!
b100100 #
b0 #!
b101001000000000100011 $
b100 $!
b1100100 %
b1001 %!
b0 &
b100011 &!
b101 '
b1100100 (
b0 (!
b1001 )!
b110 *
b1 *!
b111 +
b0 +!
b1 ,!
0-!
1/!
10
b1 5!
b1010 7
b0 7!
18
b1001 8!
b101001000000000100011 :
b0 :!
b100100 ;
0;!
b101000 <
1=!
1B!
1C
b1 C!
b0 D!
b110 E
b0 E!
b100 F
b100 F!
b0 G
b101 H
b10100100000000 H!
b100000 I
b0 I!
b1100100 J
b101000 J!
b100100 K
b0 L
b100 M
b1001 N
b1001 O
b1000 O!
b1 P
b100000 P!
b0 Q!
b111 R
b101 R!
b110 S
b1100100 S!
b1100100 T!
b10000100 V
b0 V!
b1100100 W
b1100100 W!
b101000 X
b110 \!
b1000 ]
b100000 ^
b111 ^!
b110 _
b11100 _!
b1000 `!
b11100 a
b0 b!
b110 c!
b111 d!
b101001000000000100011 j
b100100 k
b101000 l
b101000 m
b101100 n
b101000 o
b101100 p
b1001000010100000011 q
1y
b110 z
b100 {
b0 |
b101 }
b100000 ~

#110000
0!
08

#115000
1!
b0 !!
b101000 "!
b101000 #
b1001 #!
b1001000010100000011 $
b1 $!
b1100100 %
b0 %!
b1001 &
b11 &!
b0 (
b101 )
b101000 *
b0 *!
b1000 +
b1010 +!
b0 ,!
1-!
b1 .!
0/!
10!
b10 5
b0 5!
b1011 7
18
b0 9!
b1001000010100000011 :
b0 :!
b101000 ;
1;!
b101100 <
b1 <!
0=
0=!
1>
1>!
1B!
b0 C!
b0 E
b1 F
b0 F!
b1001 G
b100100001010 H!
b100100 I
b0 I!
b0 J
b1100100 J!
b101000 K
b101 K!
b1001 L
b1 M
b0 N
b1001 O!
b0 P
b100100 P!
b1100100 Q!
b1000 R
b101000 S
b0 S!
b1100100 T!
0U!
b100100 V
b1100100 V!
b1100100 W
b1100100 W!
b1100100 X
b101 Y
b101000 \!
b1001 ]
b0 ]!
b100100 ^
b1000 ^!
b101000 _
b100000 _!
b0 `
b1001 `!
b100000 a
b101000 c!
b1000 d!
b10 f
b1001000010100000011 j
b10 j!
b101000 k
b101100 l
b101100 m
b110000 n
b101100 o
b110000 p
b101010000010100010011 q
0r
1t
b0 z
b1 {
b1001 |
b100100 ~

#120000
0!
08

#125000
1!
b101100 "!
b101100 #
b101010000010100010011 $
b0 $!
b1010 %!
b10011 &!
b0 '
b1010 )!
b1100100 *
b1 *!
b1001 +
b1 ,!
1-
b0 .!
1/
00!
11
12
14
b1 5
b1100 7
b110 7!
18
b1010 8!
b101 9!
b101010000010100010011 :
b1 :!
b101100 ;
1;!
b110000 <
b0 <!
1=
0>
0>!
1?
1B!
b1 D
b110 D!
b10 E!
b0 F
b0 H
b10101000001010 H!
b101000 I
b1 I!
b101100 K
0L!
b0 M
1M!
b1010 N
b1010 O
b0 O!
b1 P
b101000 P!
b1001 R
b0 R!
b1100100 S
b101000 V
0Z
1[
b1100100 \!
b0 ]
b101000 ^
b1001 ^!
b1100100 _
b100100 _!
b0 `!
b100100 a
1b
1c
b1100100 c!
b1001 d!
1e
b1 f
1f!
1g!
0h
0i
1i!
b101010000010100010011 j
b1 j!
b101100 k
b110000 l
1l!
b110000 m
b110100 n
b110000 o
b110100 p
b10110010011 q
1r
b1 s
0t
1u
b0 {
b0 }
b101000 ~

#130000
0!
08

#135000
1!
b0 "!
b0 #!
b0 %
b0 %!
b0 &
b0 )
b0 +
0,
0-
0/
00
01
02
04
b0 5
b1101 7
18
0=
0?
0C
b0 D
b0 G
b0 I
b0 K
b0 K!
b0 L
1L!
0M!
b0 N
b1 N!
b1010 O!
b101100 P!
0Q
b0 Q!
b0 R
b0 T!
1U!
b0 V
b0 V!
b0 W
b0 W!
b0 Y
1Z
0Z!
0[
b1 \
b1010 ]
b101100 ^
b0 ^!
b101000 _!
b1010 `!
b101000 a
0b
b101 b!
0c
b0 d!
0e
0e!
b0 f
0f!
0g!
1h
1i
0i!
b0 j!
0l!
0r
b0 s
0u
0y
b0 |
b0 ~

#140000
0!
08

#145000
1!
b1 !!
b110000 "!
b110000 #
b1010 #!
b10110010011 $
b1 $!
b110 %
b1010 %!
b1010 &
b101 '
b1 (
b0 )!
b101 *
b0 *!
b1010 +
b1011 +!
1,
b0 ,!
10
b1 5
b1110 7
18
b0 8!
b0 9!
b10110010011 :
b0 :!
b110000 ;
b110100 <
1=
1C
b110 E
b1 F
b1010 G
b101 H
b1011 H!
b101100 I
b0 I!
b1 J
b0 J!
b110000 K
b1010 L
0L!
b1 M
b1010 N
b0 N!
b0 O
b0 O!
b0 P
b0 P!
1Q
b101 Q!
b1010 R
b101 R!
b101 S
b1 S!
b1 T
b110 T!
0U!
b101101 V
b101 V!
b110 W
b110 W!
b0 X
0Z
1Z!
b1 [!
b0 \
b0 ]
b101 ]!
b0 ^
b1010 ^!
b101100 _!
b101 `
b0 `!
b101100 a
b10101010 b!
b101 c!
b1010 d!
1e!
b1 f
b10110010011 j
b1 j!
b110000 k
b110100 l
b110100 m
b111000 n
b110100 o
b111000 p
b1011000010001100011 q
1r
1y
b110 z
b1 {
b1010 |
b101 }
b101100 ~

#150000
0!
08

#155000
1!
b0 !!
b110100 "!
b110100 #
b0 #!
b1011000010001100011 $
b0 $!
b0 %
b1011 %!
b0 &
b1100011 &!
b0 '
b0 (
b101 )
b1011 )!
b0 *
b0 +
b1000 +!
0,
0-!
11!
04!
b0 5
b10 5!
b1111 7
b10 7!
18
b1011 8!
b1011000010001100011 :
b1000 :!
b110100 ;
0;!
b111000 <
1?!
0B!
b10 C!
b10 D!
b1 E!
b0 F
b100 F!
b0 G
b0 H
b101100001000 H!
b110000 I
b1000 I!
b0 J
b110 J!
b110100 K
b101 K!
b0 L
1L!
b0 M
b1011 N
b1011 O
b1010 O!
b110000 P!
0Q
b0 Q!
b0 R
b0 R!
b0 S
b0 S!
b0 T
b0 T!
1U!
b110000 V
b0 V!
b0 W
b0 W!
b110 X
b101 Y
1Z
0Z!
b0 [!
b0 \!
b1010 ]
b10101010 ]!
b110000 ^
b0 ^!
b0 _
b0 _!
b10101010 `
b1010 `!
b0 a
b10111011 b!
b0 c!
b0 d!
0e!
b0 f
b1011000010001100011 j
b0 j!
b110100 k
b111000 l
b111000 m
b111100 n
b111000 o
b111100 p
b110001100000000011000010011 q
b0 {
b0 |
b0 }
b110000 ~

#160000
0!
08

#165000
1!
b1000 !!
b111000 "!
b111000 #
b1011 #!
b110001100000000011000010011 $
b0 %
b1000 %!
b1011 &
b10011 &!
b1000 (
b11 (!
b0 )
b0 )!
b110 *
b11 *!
b1010 +
b1100 +!
1,
b11 ,!
1-!
1.
00
01!
14!
b10 5
b0 5!
b10000 7
b110 7!
18
b0 8!
b1000 9!
b110001100000000011000010011 :
b1100011 :!
b111000 ;
1;!
b111100 <
0=
0?!
1@
1B!
0C
b0 C!
b110 D!
b10 E
b10 E!
b0 F!
b1011 G
b11000110000000001100 H!
b110100 I
b1100011 I!
b1000 J
b0 J!
b111000 K
b0 K!
b1011 L
b1000 N
b0 O
b1011 O!
b11 P
b110100 P!
1Q
b0 Q!
b1010 R
b110 S
b0 T!
1U!
b111100 V
b0 V!
b0 W
b0 W!
b0 X
b0 Y
1Z!
b110 \!
b1011 ]
b10111011 ]!
b110100 ^
b1010 ^!
b110 _
b110000 _!
b10111011 `
b1011 `!
b110000 a
b10101010 b!
b110 c!
b1010 d!
1e!
b10 f
b110001100000000011000010011 j
b10 j!
b111000 k
b111100 l
b111100 m
b1000000 n
b111100 o
b1000000 p
b10101000000000011010010011 q
0r
1v
0y
b10 z
b1011 |
b110100 ~

#170000
0!
08

