vivado/project_data/vivado_work.sim/sim_1/behav/xsim/simulate.log
Time resolution is 1 ps
WARNING: Too many words specified in data file imem32.mem
WARNING: Too many words specified in data file dmem32.mem
ERROR: Could not open VCD file vivado/project_data/riscv_pipeline_wave.vcd for writing.

=======================================================================================
          [START SIMULATION] ADVANCED PIPELINE TRACKER USING OUTPUT PROBES             
=======================================================================================

[CYCLE 1]
  [IF]  StallF: 0
  [ID]  PC: 0x00000000 | Inst: 0x00500093 | StallD: 0 | FlushD: 0
  [EX]  ALUOut: 0x00000000 | FwdAE: 00, FwdBE: 00 | FlushE: 0 | BranchCtrl: 0
  [MEM] WriteData: 0x00000000 | MemWriteEn: 0
  [WB]  RD(Target):  0 | WritebackData: 0x00000000 | RegWriteEn: 0
  -------------------------------------------------------------------------------------

[CYCLE 2]
  [IF]  StallF: 0
  [ID]  PC: 0x00000004 | Inst: 0x00300113 | StallD: 0 | FlushD: 0
  [EX]  ALUOut: 0x00000005 | FwdAE: 00, FwdBE: 00 | FlushE: 0 | BranchCtrl: 0
  [MEM] WriteData: 0x00000000 | MemWriteEn: 0
  [WB]  RD(Target):  0 | WritebackData: 0x00000000 | RegWriteEn: 0
  -------------------------------------------------------------------------------------

[CYCLE 3]
  [IF]  StallF: 0
  [ID]  PC: 0x00000008 | Inst: 0x002081b3 | StallD: 0 | FlushD: 0
  [EX]  ALUOut: 0x00000003 | FwdAE: 00, FwdBE: 00 | FlushE: 0 | BranchCtrl: 0
  [MEM] WriteData: 0x00000005 | MemWriteEn: 0
  [WB]  RD(Target):  0 | WritebackData: 0x00000000 | RegWriteEn: 1
  -------------------------------------------------------------------------------------

[CYCLE 4]
  [IF]  StallF: 0
  [ID]  PC: 0x0000000c | Inst: 0x40218233 | StallD: 0 | FlushD: 0
  [EX]  ALUOut: 0x00000008 | FwdAE: 01, FwdBE: 10 | FlushE: 0 | BranchCtrl: 0
  [MEM] WriteData: 0x00000003 | MemWriteEn: 0
  [WB]  RD(Target):  1 | WritebackData: 0x00000005 | RegWriteEn: 1
  -------------------------------------------------------------------------------------

[CYCLE 5]
  [IF]  StallF: 0
  [ID]  PC: 0x00000010 | Inst: 0x0020f2b3 | StallD: 0 | FlushD: 0
  [EX]  ALUOut: 0x00000005 | FwdAE: 10, FwdBE: 01 | FlushE: 0 | BranchCtrl: 0
  [MEM] WriteData: 0x00000003 | MemWriteEn: 0
  [WB]  RD(Target):  2 | WritebackData: 0x00000003 | RegWriteEn: 1
  -------------------------------------------------------------------------------------

[CYCLE 6]
  [IF]  StallF: 0
  [ID]  PC: 0x00000014 | Inst: 0x0020e333 | StallD: 0 | FlushD: 0
  [EX]  ALUOut: 0x00000001 | FwdAE: 00, FwdBE: 00 | FlushE: 0 | BranchCtrl: 0
  [MEM] WriteData: 0x00000003 | MemWriteEn: 0
  [WB]  RD(Target):  3 | WritebackData: 0x00000008 | RegWriteEn: 1
  -------------------------------------------------------------------------------------

[CYCLE 7]
  [IF]  StallF: 0
  [ID]  PC: 0x00000018 | Inst: 0x0020c3b3 | StallD: 0 | FlushD: 0
  [EX]  ALUOut: 0x00000007 | FwdAE: 00, FwdBE: 00 | FlushE: 0 | BranchCtrl: 0
  [MEM] WriteData: 0x00000003 | MemWriteEn: 0
  [WB]  RD(Target):  4 | WritebackData: 0x00000005 | RegWriteEn: 1
  -------------------------------------------------------------------------------------

[CYCLE 8]
  [IF]  StallF: 0
  [ID]  PC: 0x0000001c | Inst: 0x00209433 | StallD: 0 | FlushD: 0
  [EX]  ALUOut: 0x00000006 | FwdAE: 00, FwdBE: 00 | FlushE: 0 | BranchCtrl: 0
  [MEM] WriteData: 0x00000003 | MemWriteEn: 0
  [WB]  RD(Target):  5 | WritebackData: 0x00000001 | RegWriteEn: 1
  -------------------------------------------------------------------------------------

[CYCLE 9]
  [IF]  StallF: 0
  [ID]  PC: 0x00000020 | Inst: 0x06400493 | StallD: 0 | FlushD: 0
  [EX]  ALUOut: 0x00000028 | FwdAE: 00, FwdBE: 00 | FlushE: 0 | BranchCtrl: 0
  [MEM] WriteData: 0x00000003 | MemWriteEn: 0
  [WB]  RD(Target):  6 | WritebackData: 0x00000007 | RegWriteEn: 1
  -------------------------------------------------------------------------------------

[CYCLE 10]
  [IF]  StallF: 0
  [ID]  PC: 0x00000024 | Inst: 0x00148023 | StallD: 0 | FlushD: 0
  [EX]  ALUOut: 0x00000064 | FwdAE: 00, FwdBE: 00 | FlushE: 0 | BranchCtrl: 0
  [MEM] WriteData: 0x00000003 | MemWriteEn: 0
  [WB]  RD(Target):  7 | WritebackData: 0x00000006 | RegWriteEn: 1
  -------------------------------------------------------------------------------------

[CYCLE 11]
  [IF]  StallF: 0
  [ID]  PC: 0x00000028 | Inst: 0x00048503 | StallD: 0 | FlushD: 0
  [EX]  ALUOut: 0x00000064 | FwdAE: 10, FwdBE: 00 | FlushE: 0 | BranchCtrl: 0
  [MEM] WriteData: 0x00000005 | MemWriteEn: 0
  [WB]  RD(Target):  8 | WritebackData: 0x00000028 | RegWriteEn: 1
  -------------------------------------------------------------------------------------

[CYCLE 12]
  [IF]  StallF: 1
  [ID]  PC: 0x0000002c | Inst: 0x00150513 | StallD: 1 | FlushD: 0
  [EX]  ALUOut: 0x00000064 | FwdAE: 01, FwdBE: 00 | FlushE: 1 | BranchCtrl: 0
  [MEM] WriteData: 0x00000005 | MemWriteEn: 1
  [WB]  RD(Target):  9 | WritebackData: 0x00000064 | RegWriteEn: 1
  -------------------------------------------------------------------------------------

[CYCLE 13]
  [IF]  StallF: 0
  [ID]  PC: 0x0000002c | Inst: 0x00150513 | StallD: 0 | FlushD: 0
  [EX]  ALUOut: 0x00000000 | FwdAE: 00, FwdBE: 00 | FlushE: 0 | BranchCtrl: 0
  [MEM] WriteData: 0x00000000 | MemWriteEn: 0
  [WB]  RD(Target):  0 | WritebackData: 0x00000064 | RegWriteEn: 0
  -------------------------------------------------------------------------------------

[CYCLE 14]
  [IF]  StallF: 0
  [ID]  PC: 0x00000030 | Inst: 0x00000593 | StallD: 0 | FlushD: 0
  [EX]  ALUOut: 0x00000006 | FwdAE: 01, FwdBE: 00 | FlushE: 0 | BranchCtrl: 0
  [MEM] WriteData: 0x00000000 | MemWriteEn: 0
  [WB]  RD(Target): 10 | WritebackData: 0x00000005 | RegWriteEn: 1
  -------------------------------------------------------------------------------------

[CYCLE 15]
  [IF]  StallF: 0
  [ID]  PC: 0x00000034 | Inst: 0x00058463 | StallD: 0 | FlushD: 0
  [EX]  ALUOut: 0x00000000 | FwdAE: 00, FwdBE: 00 | FlushE: 0 | BranchCtrl: 0
  [MEM] WriteData: 0x00000005 | MemWriteEn: 0
  [WB]  RD(Target):  0 | WritebackData: 0x00000000 | RegWriteEn: 0
  -------------------------------------------------------------------------------------

[CYCLE 16]
  [IF]  StallF: 0
  [ID]  PC: 0x00000038 | Inst: 0x06300613 | StallD: 0 | FlushD: 0
  [EX]  ALUOut: 0x00000000 | FwdAE: 10, FwdBE: 00 | FlushE: 0 | BranchCtrl: 1
  [MEM] WriteData: 0x00000000 | MemWriteEn: 0
  [WB]  RD(Target): 10 | WritebackData: 0x00000006 | RegWriteEn: 1
  -------------------------------------------------------------------------------------

[CYCLE 17]
  [IF]  StallF: 0
  [ID]  PC: 0x0000003c | Inst: 0x02a00693 | StallD: 0 | FlushD: 0
  [EX]  ALUOut: 0x00000063 | FwdAE: 00, FwdBE: 00 | FlushE: 0 | BranchCtrl: 0
  [MEM] WriteData: 0x00000000 | MemWriteEn: 0
  [WB]  RD(Target): 11 | WritebackData: 0x00000000 | RegWriteEn: 1
  -------------------------------------------------------------------------------------

[CYCLE 18]
  [IF]  StallF: 0
  [ID]  PC: 0x00000040 | Inst: 0x00071463 | StallD: 0 | FlushD: 0
  [EX]  ALUOut: 0x0000002a | FwdAE: 00, FwdBE: 00 | FlushE: 0 | BranchCtrl: 0
  [MEM] WriteData: 0x00000008 | MemWriteEn: 0
  [WB]  RD(Target):  8 | WritebackData: 0x00000000 | RegWriteEn: 0
  -------------------------------------------------------------------------------------

[CYCLE 19]
  [IF]  StallF: 0
  [ID]  PC: 0x00000044 | Inst: 0x06300793 | StallD: 0 | FlushD: 1
  [EX]  ALUOut: 0x0000000e | FwdAE: 00, FwdBE: 00 | FlushE: 0 | BranchCtrl: 1
  [MEM] WriteData: 0x00000006 | MemWriteEn: 0
  [WB]  RD(Target): 12 | WritebackData: 0x00000063 | RegWriteEn: 1
  -------------------------------------------------------------------------------------

[CYCLE 20]
  [IF]  StallF: 0
  [ID]  PC: 0x00000000 | Inst: 0x00000013 | StallD: 0 | FlushD: 0
  [EX]  ALUOut: 0x00000063 | FwdAE: 00, FwdBE: 00 | FlushE: 0 | BranchCtrl: 0
  [MEM] WriteData: 0x00000000 | MemWriteEn: 0
  [WB]  RD(Target): 13 | WritebackData: 0x0000002a | RegWriteEn: 1
  -------------------------------------------------------------------------------------

[CYCLE 21]
  [IF]  StallF: 0
  [ID]  PC: 0x00000048 | Inst: 0x03700813 | StallD: 0 | FlushD: 0
  [EX]  ALUOut: 0x00000000 | FwdAE: 00, FwdBE: 00 | FlushE: 0 | BranchCtrl: 0
  [MEM] WriteData: 0x00000008 | MemWriteEn: 0
  [WB]  RD(Target):  8 | WritebackData: 0x0000000e | RegWriteEn: 0
  -------------------------------------------------------------------------------------

[CYCLE 22]
  [IF]  StallF: 0
  [ID]  PC: 0x0000004c | Inst: 0x008008ef | StallD: 0 | FlushD: 0
  [EX]  ALUOut: 0x00000037 | FwdAE: 00, FwdBE: 00 | FlushE: 0 | BranchCtrl: 0
  [MEM] WriteData: 0x00000000 | MemWriteEn: 0
  [WB]  RD(Target): 15 | WritebackData: 0x00000063 | RegWriteEn: 1
  -------------------------------------------------------------------------------------

[CYCLE 23]
  [IF]  StallF: 0
  [ID]  PC: 0x00000050 | Inst: 0x06300913 | StallD: 0 | FlushD: 1
  [EX]  ALUOut: 0x00000028 | FwdAE: 00, FwdBE: 00 | FlushE: 0 | BranchCtrl: 0
  [MEM] WriteData: 0x00000017 | MemWriteEn: 0
  [WB]  RD(Target):  0 | WritebackData: 0x00000000 | RegWriteEn: 1
  -------------------------------------------------------------------------------------

[CYCLE 24]
  [IF]  StallF: 0
  [ID]  PC: 0x00000000 | Inst: 0x00000013 | StallD: 0 | FlushD: 0
  [EX]  ALUOut: 0x00000063 | FwdAE: 00, FwdBE: 00 | FlushE: 0 | BranchCtrl: 0
  [MEM] WriteData: 0x00000028 | MemWriteEn: 0
  [WB]  RD(Target): 16 | WritebackData: 0x00000037 | RegWriteEn: 1
  -------------------------------------------------------------------------------------

[CYCLE 25]
  [IF]  StallF: 0
  [ID]  PC: 0x00000054 | Inst: 0x04d00993 | StallD: 0 | FlushD: 0
  [EX]  ALUOut: 0x00000000 | FwdAE: 00, FwdBE: 00 | FlushE: 0 | BranchCtrl: 0
  [MEM] WriteData: 0x00000008 | MemWriteEn: 0
  [WB]  RD(Target): 17 | WritebackData: 0x00000050 | RegWriteEn: 1
  -------------------------------------------------------------------------------------

[CYCLE 26]
  [IF]  StallF: 0
  [ID]  PC: 0x00000058 | Inst: 0x123452b7 | StallD: 0 | FlushD: 0
  [EX]  ALUOut: 0x0000004d | FwdAE: 00, FwdBE: 00 | FlushE: 0 | BranchCtrl: 0
  [MEM] WriteData: 0x00000000 | MemWriteEn: 0
  [WB]  RD(Target): 18 | WritebackData: 0x00000063 | RegWriteEn: 1
  -------------------------------------------------------------------------------------

[CYCLE 27]
  [IF]  StallF: 0
  [ID]  PC: 0x0000005c | Inst: 0x00020317 | StallD: 0 | FlushD: 0
  [EX]  ALUOut: 0x00000030 | FwdAE: 00, FwdBE: 00 | FlushE: 0 | BranchCtrl: 0
  [MEM] WriteData: 0x0000002a | MemWriteEn: 0
  [WB]  RD(Target):  0 | WritebackData: 0x00000000 | RegWriteEn: 1
  -------------------------------------------------------------------------------------

[CYCLE 28]
  [IF]  StallF: 0
  [ID]  PC: 0x00000060 | Inst: 0xf0028393 | StallD: 0 | FlushD: 0
  [EX]  ALUOut: 0x00000005 | FwdAE: 00, FwdBE: 00 | FlushE: 0 | BranchCtrl: 0
  [MEM] WriteData: 0x00000008 | MemWriteEn: 0
  [WB]  RD(Target): 19 | WritebackData: 0x0000004d | RegWriteEn: 1
  -------------------------------------------------------------------------------------

[CYCLE 29]
  [IF]  StallF: 0
  [ID]  PC: 0x00000064 | Inst: 0x00439413 | StallD: 0 | FlushD: 0
  [EX]  ALUOut: 0xffffff01 | FwdAE: 00, FwdBE: 00 | FlushE: 0 | BranchCtrl: 0
  [MEM] WriteData: 0x00000000 | MemWriteEn: 0
  [WB]  RD(Target):  5 | WritebackData: 0x00000030 | RegWriteEn: 0
  -------------------------------------------------------------------------------------

[CYCLE 30]
  [IF]  StallF: 0
  [ID]  PC: 0x00000068 | Inst: 0x40235493 | StallD: 0 | FlushD: 0
  [EX]  ALUOut: 0xfffff010 | FwdAE: 10, FwdBE: 00 | FlushE: 0 | BranchCtrl: 0
  [MEM] WriteData: 0x00000000 | MemWriteEn: 0
  [WB]  RD(Target):  6 | WritebackData: 0x00000005 | RegWriteEn: 0
  -------------------------------------------------------------------------------------

[CYCLE 31]
  [IF]  StallF: 0
  [ID]  PC: 0x0000006c | Inst: 0x00335513 | StallD: 0 | FlushD: 0
  [EX]  ALUOut: 0x00000001 | FwdAE: 00, FwdBE: 00 | FlushE: 0 | BranchCtrl: 0
  [MEM] WriteData: 0x00000005 | MemWriteEn: 0
  [WB]  RD(Target):  7 | WritebackData: 0xffffff01 | RegWriteEn: 1
  -------------------------------------------------------------------------------------

[CYCLE 32]
  [IF]  StallF: 0
  [ID]  PC: 0x00000070 | Inst: 0x03242593 | StallD: 0 | FlushD: 0
  [EX]  ALUOut: 0x00000000 | FwdAE: 00, FwdBE: 00 | FlushE: 0 | BranchCtrl: 0
  [MEM] WriteData: 0x00000003 | MemWriteEn: 0
  [WB]  RD(Target):  8 | WritebackData: 0xfffff010 | RegWriteEn: 1
  -------------------------------------------------------------------------------------

[CYCLE 33]
  [IF]  StallF: 0
  [ID]  PC: 0x00000074 | Inst: 0x00a4b613 | StallD: 0 | FlushD: 0
  [EX]  ALUOut: 0x00000001 | FwdAE: 00, FwdBE: 00 | FlushE: 0 | BranchCtrl: 0
  [MEM] WriteData: 0x00000008 | MemWriteEn: 0
  [WB]  RD(Target):  9 | WritebackData: 0x00000001 | RegWriteEn: 1
  -------------------------------------------------------------------------------------

[CYCLE 34]
  [IF]  StallF: 0
  [ID]  PC: 0x00000078 | Inst: 0x05a54693 | StallD: 0 | FlushD: 0
  [EX]  ALUOut: 0x0000000b | FwdAE: 00, FwdBE: 01 | FlushE: 0 | BranchCtrl: 0
  [MEM] WriteData: 0x00000063 | MemWriteEn: 0
  [WB]  RD(Target): 10 | WritebackData: 0x00000000 | RegWriteEn: 1
  -------------------------------------------------------------------------------------

[CYCLE 35]
  [IF]  StallF: 0
  [ID]  PC: 0x0000007c | Inst: 0x03c5e713 | StallD: 0 | FlushD: 0
  [EX]  ALUOut: 0x0000005a | FwdAE: 00, FwdBE: 00 | FlushE: 0 | BranchCtrl: 0
  [MEM] WriteData: 0x00000000 | MemWriteEn: 0
  [WB]  RD(Target): 11 | WritebackData: 0x00000001 | RegWriteEn: 1
  -------------------------------------------------------------------------------------

[CYCLE 36]
  [IF]  StallF: 0
  [ID]  PC: 0x00000080 | Inst: 0xxxxxxxxx | StallD: 0 | FlushD: 0
  [EX]  ALUOut: 0x0000003d | FwdAE: 00, FwdBE: 00 | FlushE: 0 | BranchCtrl: 0
  [MEM] WriteData: 0x0000001a | MemWriteEn: 0
  [WB]  RD(Target): 12 | WritebackData: 0x0000000b | RegWriteEn: 1
  -------------------------------------------------------------------------------------

[CYCLE 37]
  [IF]  StallF: 0
  [ID]  PC: 0x00000084 | Inst: 0xxxxxxxxx | StallD: 0 | FlushD: 0
  [EX]  ALUOut: 0xxxxxxxxx | FwdAE: 00, FwdBE: 00 | FlushE: 0 | BranchCtrl: 0
  [MEM] WriteData: 0x0000001c | MemWriteEn: 0
  [WB]  RD(Target): 13 | WritebackData: 0x0000005a | RegWriteEn: 1
  -------------------------------------------------------------------------------------

[CYCLE 38]
  [IF]  StallF: 0
  [ID]  PC: 0x00000088 | Inst: 0xxxxxxxxx | StallD: 0 | FlushD: 0
  [EX]  ALUOut: 0xxxxxxxxx | FwdAE: 00, FwdBE: 00 | FlushE: 0 | BranchCtrl: 0
  [MEM] WriteData: 0xxxxxxxxx | MemWriteEn: 0
  [WB]  RD(Target): 14 | WritebackData: 0x0000003d | RegWriteEn: 1
  -------------------------------------------------------------------------------------

[CYCLE 39]
  [IF]  StallF: 0
  [ID]  PC: 0x0000008c | Inst: 0xxxxxxxxx | StallD: 0 | FlushD: 0
  [EX]  ALUOut: 0xxxxxxxxx | FwdAE: 00, FwdBE: 00 | FlushE: 0 | BranchCtrl: 0
  [MEM] WriteData: 0xxxxxxxxx | MemWriteEn: 0
  [WB]  RD(Target):  x | WritebackData: 0xxxxxxxxx | RegWriteEn: 0
  -------------------------------------------------------------------------------------

[CYCLE 40]
  [IF]  StallF: 0
  [ID]  PC: 0x00000090 | Inst: 0xxxxxxxxx | StallD: 0 | FlushD: 0
  [EX]  ALUOut: 0xxxxxxxxx | FwdAE: 00, FwdBE: 00 | FlushE: 0 | BranchCtrl: 0
  [MEM] WriteData: 0xxxxxxxxx | MemWriteEn: 0
  [WB]  RD(Target):  x | WritebackData: 0xxxxxxxxx | RegWriteEn: 0
  -------------------------------------------------------------------------------------

[CYCLE 41]
  [IF]  StallF: 0
  [ID]  PC: 0x00000094 | Inst: 0xxxxxxxxx | StallD: 0 | FlushD: 0
  [EX]  ALUOut: 0xxxxxxxxx | FwdAE: 00, FwdBE: 00 | FlushE: 0 | BranchCtrl: 0
  [MEM] WriteData: 0xxxxxxxxx | MemWriteEn: 0
  [WB]  RD(Target):  x | WritebackData: 0xxxxxxxxx | RegWriteEn: 0
  -------------------------------------------------------------------------------------

[CYCLE 42]
  [IF]  StallF: 0
  [ID]  PC: 0x00000098 | Inst: 0xxxxxxxxx | StallD: 0 | FlushD: 0
  [EX]  ALUOut: 0xxxxxxxxx | FwdAE: 00, FwdBE: 00 | FlushE: 0 | BranchCtrl: 0
  [MEM] WriteData: 0xxxxxxxxx | MemWriteEn: 0
  [WB]  RD(Target):  x | WritebackData: 0xxxxxxxxx | RegWriteEn: 0
  -------------------------------------------------------------------------------------

[CYCLE 43]
  [IF]  StallF: 0
  [ID]  PC: 0x0000009c | Inst: 0xxxxxxxxx | StallD: 0 | FlushD: 0
  [EX]  ALUOut: 0xxxxxxxxx | FwdAE: 00, FwdBE: 00 | FlushE: 0 | BranchCtrl: 0
  [MEM] WriteData: 0xxxxxxxxx | MemWriteEn: 0
  [WB]  RD(Target):  x | WritebackData: 0xxxxxxxxx | RegWriteEn: 0
  -------------------------------------------------------------------------------------

[CYCLE 44]
  [IF]  StallF: 0
  [ID]  PC: 0x000000a0 | Inst: 0xxxxxxxxx | StallD: 0 | FlushD: 0
  [EX]  ALUOut: 0xxxxxxxxx | FwdAE: 00, FwdBE: 00 | FlushE: 0 | BranchCtrl: 0
  [MEM] WriteData: 0xxxxxxxxx | MemWriteEn: 0
  [WB]  RD(Target):  x | WritebackData: 0xxxxxxxxx | RegWriteEn: 0
  -------------------------------------------------------------------------------------

[CYCLE 45]
  [IF]  StallF: 0
  [ID]  PC: 0x000000a4 | Inst: 0xxxxxxxxx | StallD: 0 | FlushD: 0
  [EX]  ALUOut: 0xxxxxxxxx | FwdAE: 00, FwdBE: 00 | FlushE: 0 | BranchCtrl: 0
  [MEM] WriteData: 0xxxxxxxxx | MemWriteEn: 0
  [WB]  RD(Target):  x | WritebackData: 0xxxxxxxxx | RegWriteEn: 0
  -------------------------------------------------------------------------------------

[CYCLE 46]
  [IF]  StallF: 0
  [ID]  PC: 0x000000a8 | Inst: 0xxxxxxxxx | StallD: 0 | FlushD: 0
  [EX]  ALUOut: 0xxxxxxxxx | FwdAE: 00, FwdBE: 00 | FlushE: 0 | BranchCtrl: 0
  [MEM] WriteData: 0xxxxxxxxx | MemWriteEn: 0
  [WB]  RD(Target):  x | WritebackData: 0xxxxxxxxx | RegWriteEn: 0
  -------------------------------------------------------------------------------------

[CYCLE 47]
  [IF]  StallF: 0
  [ID]  PC: 0x000000ac | Inst: 0xxxxxxxxx | StallD: 0 | FlushD: 0
  [EX]  ALUOut: 0xxxxxxxxx | FwdAE: 00, FwdBE: 00 | FlushE: 0 | BranchCtrl: 0
  [MEM] WriteData: 0xxxxxxxxx | MemWriteEn: 0
  [WB]  RD(Target):  x | WritebackData: 0xxxxxxxxx | RegWriteEn: 0
  -------------------------------------------------------------------------------------

[CYCLE 48]
  [IF]  StallF: 0
  [ID]  PC: 0x000000b0 | Inst: 0xxxxxxxxx | StallD: 0 | FlushD: 0
  [EX]  ALUOut: 0xxxxxxxxx | FwdAE: 00, FwdBE: 00 | FlushE: 0 | BranchCtrl: 0
  [MEM] WriteData: 0xxxxxxxxx | MemWriteEn: 0
  [WB]  RD(Target):  x | WritebackData: 0xxxxxxxxx | RegWriteEn: 0
  -------------------------------------------------------------------------------------

[CYCLE 49]
  [IF]  StallF: 0
  [ID]  PC: 0x000000b4 | Inst: 0xxxxxxxxx | StallD: 0 | FlushD: 0
  [EX]  ALUOut: 0xxxxxxxxx | FwdAE: 00, FwdBE: 00 | FlushE: 0 | BranchCtrl: 0
  [MEM] WriteData: 0xxxxxxxxx | MemWriteEn: 0
  [WB]  RD(Target):  x | WritebackData: 0xxxxxxxxx | RegWriteEn: 0
  -------------------------------------------------------------------------------------

[CYCLE 50]
  [IF]  StallF: 0
  [ID]  PC: 0x000000b8 | Inst: 0xxxxxxxxx | StallD: 0 | FlushD: 0
  [EX]  ALUOut: 0xxxxxxxxx | FwdAE: 00, FwdBE: 00 | FlushE: 0 | BranchCtrl: 0
  [MEM] WriteData: 0xxxxxxxxx | MemWriteEn: 0
  [WB]  RD(Target):  x | WritebackData: 0xxxxxxxxx | RegWriteEn: 0
  -------------------------------------------------------------------------------------

[CYCLE 51]
  [IF]  StallF: 0
  [ID]  PC: 0x000000bc | Inst: 0xxxxxxxxx | StallD: 0 | FlushD: 0
  [EX]  ALUOut: 0xxxxxxxxx | FwdAE: 00, FwdBE: 00 | FlushE: 0 | BranchCtrl: 0
  [MEM] WriteData: 0xxxxxxxxx | MemWriteEn: 0
  [WB]  RD(Target):  x | WritebackData: 0xxxxxxxxx | RegWriteEn: 0
  -------------------------------------------------------------------------------------

[CYCLE 52]
  [IF]  StallF: 0
  [ID]  PC: 0x000000c0 | Inst: 0xxxxxxxxx | StallD: 0 | FlushD: 0
  [EX]  ALUOut: 0xxxxxxxxx | FwdAE: 00, FwdBE: 00 | FlushE: 0 | BranchCtrl: 0
  [MEM] WriteData: 0xxxxxxxxx | MemWriteEn: 0
  [WB]  RD(Target):  x | WritebackData: 0xxxxxxxxx | RegWriteEn: 0
  -------------------------------------------------------------------------------------

[CYCLE 53]
  [IF]  StallF: 0
  [ID]  PC: 0x000000c4 | Inst: 0xxxxxxxxx | StallD: 0 | FlushD: 0
  [EX]  ALUOut: 0xxxxxxxxx | FwdAE: 00, FwdBE: 00 | FlushE: 0 | BranchCtrl: 0
  [MEM] WriteData: 0xxxxxxxxx | MemWriteEn: 0
  [WB]  RD(Target):  x | WritebackData: 0xxxxxxxxx | RegWriteEn: 0
  -------------------------------------------------------------------------------------

[CYCLE 54]
  [IF]  StallF: 0
  [ID]  PC: 0x000000c8 | Inst: 0xxxxxxxxx | StallD: 0 | FlushD: 0
  [EX]  ALUOut: 0xxxxxxxxx | FwdAE: 00, FwdBE: 00 | FlushE: 0 | BranchCtrl: 0
  [MEM] WriteData: 0xxxxxxxxx | MemWriteEn: 0
  [WB]  RD(Target):  x | WritebackData: 0xxxxxxxxx | RegWriteEn: 0
  -------------------------------------------------------------------------------------

[CYCLE 55]
  [IF]  StallF: 0
  [ID]  PC: 0x000000cc | Inst: 0xxxxxxxxx | StallD: 0 | FlushD: 0
  [EX]  ALUOut: 0xxxxxxxxx | FwdAE: 00, FwdBE: 00 | FlushE: 0 | BranchCtrl: 0
  [MEM] WriteData: 0xxxxxxxxx | MemWriteEn: 0
  [WB]  RD(Target):  x | WritebackData: 0xxxxxxxxx | RegWriteEn: 0
  -------------------------------------------------------------------------------------

[CYCLE 56]
  [IF]  StallF: 0
  [ID]  PC: 0x000000d0 | Inst: 0xxxxxxxxx | StallD: 0 | FlushD: 0
  [EX]  ALUOut: 0xxxxxxxxx | FwdAE: 00, FwdBE: 00 | FlushE: 0 | BranchCtrl: 0
  [MEM] WriteData: 0xxxxxxxxx | MemWriteEn: 0
  [WB]  RD(Target):  x | WritebackData: 0xxxxxxxxx | RegWriteEn: 0
  -------------------------------------------------------------------------------------

[CYCLE 57]
  [IF]  StallF: 0
  [ID]  PC: 0x000000d4 | Inst: 0xxxxxxxxx | StallD: 0 | FlushD: 0
  [EX]  ALUOut: 0xxxxxxxxx | FwdAE: 00, FwdBE: 00 | FlushE: 0 | BranchCtrl: 0
  [MEM] WriteData: 0xxxxxxxxx | MemWriteEn: 0
  [WB]  RD(Target):  x | WritebackData: 0xxxxxxxxx | RegWriteEn: 0
  -------------------------------------------------------------------------------------

[CYCLE 58]
  [IF]  StallF: 0
  [ID]  PC: 0x000000d8 | Inst: 0xxxxxxxxx | StallD: 0 | FlushD: 0
  [EX]  ALUOut: 0xxxxxxxxx | FwdAE: 00, FwdBE: 00 | FlushE: 0 | BranchCtrl: 0
  [MEM] WriteData: 0xxxxxxxxx | MemWriteEn: 0
  [WB]  RD(Target):  x | WritebackData: 0xxxxxxxxx | RegWriteEn: 0
  -------------------------------------------------------------------------------------

[CYCLE 59]
  [IF]  StallF: 0
  [ID]  PC: 0x000000dc | Inst: 0xxxxxxxxx | StallD: 0 | FlushD: 0
  [EX]  ALUOut: 0xxxxxxxxx | FwdAE: 00, FwdBE: 00 | FlushE: 0 | BranchCtrl: 0
  [MEM] WriteData: 0xxxxxxxxx | MemWriteEn: 0
  [WB]  RD(Target):  x | WritebackData: 0xxxxxxxxx | RegWriteEn: 0
  -------------------------------------------------------------------------------------

[CYCLE 60]
  [IF]  StallF: 0
  [ID]  PC: 0x000000e0 | Inst: 0xxxxxxxxx | StallD: 0 | FlushD: 0
  [EX]  ALUOut: 0xxxxxxxxx | FwdAE: 00, FwdBE: 00 | FlushE: 0 | BranchCtrl: 0
  [MEM] WriteData: 0xxxxxxxxx | MemWriteEn: 0
  [WB]  RD(Target):  x | WritebackData: 0xxxxxxxxx | RegWriteEn: 0
  -------------------------------------------------------------------------------------

[CYCLE 61]
  [IF]  StallF: 0
  [ID]  PC: 0x000000e4 | Inst: 0xxxxxxxxx | StallD: 0 | FlushD: 0
  [EX]  ALUOut: 0xxxxxxxxx | FwdAE: 00, FwdBE: 00 | FlushE: 0 | BranchCtrl: 0
  [MEM] WriteData: 0xxxxxxxxx | MemWriteEn: 0
  [WB]  RD(Target):  x | WritebackData: 0xxxxxxxxx | RegWriteEn: 0
  -------------------------------------------------------------------------------------

[CYCLE 62]
  [IF]  StallF: 0
  [ID]  PC: 0x000000e8 | Inst: 0xxxxxxxxx | StallD: 0 | FlushD: 0
  [EX]  ALUOut: 0xxxxxxxxx | FwdAE: 00, FwdBE: 00 | FlushE: 0 | BranchCtrl: 0
  [MEM] WriteData: 0xxxxxxxxx | MemWriteEn: 0
  [WB]  RD(Target):  x | WritebackData: 0xxxxxxxxx | RegWriteEn: 0
  -------------------------------------------------------------------------------------

[CYCLE 63]
  [IF]  StallF: 0
  [ID]  PC: 0x000000ec | Inst: 0xxxxxxxxx | StallD: 0 | FlushD: 0
  [EX]  ALUOut: 0xxxxxxxxx | FwdAE: 00, FwdBE: 00 | FlushE: 0 | BranchCtrl: 0
  [MEM] WriteData: 0xxxxxxxxx | MemWriteEn: 0
  [WB]  RD(Target):  x | WritebackData: 0xxxxxxxxx | RegWriteEn: 0
  -------------------------------------------------------------------------------------

[CYCLE 64]
  [IF]  StallF: 0
  [ID]  PC: 0x000000f0 | Inst: 0xxxxxxxxx | StallD: 0 | FlushD: 0
  [EX]  ALUOut: 0xxxxxxxxx | FwdAE: 00, FwdBE: 00 | FlushE: 0 | BranchCtrl: 0
  [MEM] WriteData: 0xxxxxxxxx | MemWriteEn: 0
  [WB]  RD(Target):  x | WritebackData: 0xxxxxxxxx | RegWriteEn: 0
  -------------------------------------------------------------------------------------

[CYCLE 65]
  [IF]  StallF: 0
  [ID]  PC: 0x000000f4 | Inst: 0xxxxxxxxx | StallD: 0 | FlushD: 0
  [EX]  ALUOut: 0xxxxxxxxx | FwdAE: 00, FwdBE: 00 | FlushE: 0 | BranchCtrl: 0
  [MEM] WriteData: 0xxxxxxxxx | MemWriteEn: 0
  [WB]  RD(Target):  x | WritebackData: 0xxxxxxxxx | RegWriteEn: 0
  -------------------------------------------------------------------------------------

[CYCLE 66]
  [IF]  StallF: 0
  [ID]  PC: 0x000000f8 | Inst: 0xxxxxxxxx | StallD: 0 | FlushD: 0
  [EX]  ALUOut: 0xxxxxxxxx | FwdAE: 00, FwdBE: 00 | FlushE: 0 | BranchCtrl: 0
  [MEM] WriteData: 0xxxxxxxxx | MemWriteEn: 0
  [WB]  RD(Target):  x | WritebackData: 0xxxxxxxxx | RegWriteEn: 0
  -------------------------------------------------------------------------------------

[CYCLE 67]
  [IF]  StallF: 0
  [ID]  PC: 0x000000fc | Inst: 0xxxxxxxxx | StallD: 0 | FlushD: 0
  [EX]  ALUOut: 0xxxxxxxxx | FwdAE: 00, FwdBE: 00 | FlushE: 0 | BranchCtrl: 0
