vivado/project_data/riscv_pipeline_wave.vcd
$date
	Tue Jun 23 00:45:17 2026
$end
$version
	Icarus Verilog
$end
$timescale
	1ps
$end
$scope module tb_riscv_pipeline $end
$var wire 32 ! w_wb_result [31:0] $end
$var wire 5 " w_wb_rd [4:0] $end
$var wire 32 # w_pc_decode [31:0] $end
$var wire 32 $ w_mem_write_data [31:0] $end
$var wire 32 % w_instr_decode [31:0] $end
$var wire 1 & w_haz_stallF $end
$var wire 1 ' w_haz_stallD $end
$var wire 2 ( w_haz_forwardBE [1:0] $end
$var wire 2 ) w_haz_forwardAE [1:0] $end
$var wire 1 * w_haz_flushE $end
$var wire 1 + w_haz_flushD $end
$var wire 1 , w_ctrl_regwrite $end
$var wire 1 - w_ctrl_memwrite $end
$var wire 1 . w_ctrl_memtoreg $end
$var wire 1 / w_ctrl_branch $end
$var wire 1 0 w_ctrl_alusrc $end
$var wire 32 1 w_alu_result_exec [31:0] $end
$var reg 1 2 CLK $end
$var reg 1 3 RESET $end
$var integer 32 4 cycle_count [31:0] $end
$scope module uut $end
$var wire 1 2 CLK $end
$var wire 1 3 RESET $end
$var wire 1 5 enableD_s $end
$var wire 1 6 enableF_s $end
$var wire 32 7 o_alu_result_exec [31:0] $end
$var wire 1 0 o_ctrl_alusrc $end
$var wire 1 / o_ctrl_branch $end
$var wire 1 . o_ctrl_memtoreg $end
$var wire 1 - o_ctrl_memwrite $end
$var wire 1 , o_ctrl_regwrite $end
$var wire 1 + o_haz_flushD $end
$var wire 1 * o_haz_flushE $end
$var wire 2 8 o_haz_forwardAE [1:0] $end
$var wire 2 9 o_haz_forwardBE [1:0] $end
$var wire 1 ' o_haz_stallD $end
$var wire 1 & o_haz_stallF $end
$var wire 32 : o_instr_decode [31:0] $end
$var wire 32 ; o_mem_write_data [31:0] $end
$var wire 32 < o_pc_decode [31:0] $end
$var wire 5 = o_wb_rd [4:0] $end
$var wire 32 > o_wb_result [31:0] $end
$var wire 32 ? WriteDataM_s [31:0] $end
$var wire 1 @ StallF_s $end
$var wire 1 A StallD_s $end
$var wire 5 B ShamtE_s [4:0] $end
$var wire 32 C ResultW_s [31:0] $end
$var wire 2 D ResultSrcW_s [1:0] $end
$var wire 2 E ResultSrcM_s [1:0] $end
$var wire 2 F ResultSrcE_s [1:0] $end
$var wire 32 G ResultE_s [31:0] $end
$var wire 1 H RegWriteW_s $end
$var wire 1 I RegWriteM_s $end
$var wire 1 J RegWriteE_s $end
$var wire 32 K ReaddataW_s [31:0] $end
$var wire 5 L RS2E_s [4:0] $end
$var wire 5 M RS2D_s [4:0] $end
$var wire 5 N RS1E_s [4:0] $end
$var wire 5 O RS1D_s [4:0] $end
$var wire 5 P RDW_s [4:0] $end
$var wire 5 Q RDM_s [4:0] $end
$var wire 5 R RDE_s [4:0] $end
$var wire 32 S RD2E_s [31:0] $end
$var wire 32 T RD1E_s [31:0] $end
$var wire 32 U PCTargetE_s [31:0] $end
$var wire 2 V PCSrcE_s [1:0] $end
$var wire 32 W PCPlus4W_s [31:0] $end
$var wire 32 X PCPlus4M_s [31:0] $end
$var wire 32 Y PCPlus4E_s [31:0] $end
$var wire 32 Z PCPlus4D [31:0] $end
$var wire 32 [ PCE_s [31:0] $end
$var wire 32 \ PCD [31:0] $end
$var wire 1 ] MemtoRegE_s $end
$var wire 1 ^ MemWriteM_s $end
$var wire 1 _ MemWriteE_s $end
$var wire 1 ` JalrE_s $end
$var wire 1 a JalE_s $end
$var wire 32 b InStrD [31:0] $end
$var wire 32 c Imm_Ext_E_s [31:0] $end
$var wire 2 d ForwardBE_s [1:0] $end
$var wire 2 e ForwardAE_s [1:0] $end
$var wire 1 f FlushE_s $end
$var wire 1 g FlushD_s $end
$var wire 1 h BranchE_s $end
$var wire 32 i AluResultW_s [31:0] $end
$var wire 1 j ALUSrcE_s $end
$var wire 32 k ALUResultM_s [31:0] $end
$var wire 5 l ALUControlE_s [4:0] $end
$scope module u_ex $end
$var wire 32 m ALUResultM_fwd [31:0] $end
$var wire 1 2 CLK $end
$var wire 1 3 RESET $end
$var wire 32 n ResultE [31:0] $end
$var wire 1 o Zero $end
$var wire 32 p SrcB [31:0] $end
$var wire 5 q ShamtE [4:0] $end
$var wire 32 r ResultW_fwd [31:0] $end
$var wire 2 s ResultSrcE [1:0] $end
$var wire 1 J RegWriteE $end
$var wire 5 t RS2E [4:0] $end
$var wire 5 u RS1E [4:0] $end
$var wire 5 v RDE [4:0] $end
$var wire 32 w RD2E [31:0] $end
$var wire 32 x RD1E [31:0] $end
$var wire 32 y PCTargetE [31:0] $end
$var wire 2 z PCSrcE [1:0] $end
$var wire 32 { PCPlus4E [31:0] $end
$var wire 32 | PCE [31:0] $end
$var wire 1 _ MemWriteE $end
$var wire 1 ` JalrE $end
$var wire 1 a JalE $end
$var wire 32 } Imm_Ext_E [31:0] $end
$var wire 2 ~ ForwardBE [1:0] $end
$var wire 2 !" ForwardAE [1:0] $end
$var wire 1 h BranchE $end
$var wire 1 j ALUSrcE $end
$var wire 32 "" ALUResult [31:0] $end
$var wire 5 #" ALUControlE [4:0] $end
$var reg 32 $" ALUResultM [31:0] $end
$var reg 1 ^ MemWriteM $end
$var reg 32 %" PCPlus4M [31:0] $end
$var reg 5 &" RDM [4:0] $end
$var reg 1 I RegWriteM $end
$var reg 2 '" ResultSrcM [1:0] $end
$var reg 32 (" SrcA_raw [31:0] $end
$var reg 32 )" SrcB_reg_fwd [31:0] $end
$var reg 32 *" WriteDataM [31:0] $end
$scope module u_alu $end
$var wire 32 +" SrcA [31:0] $end
$var wire 32 ," SrcB [31:0] $end
$var wire 1 o Zero $end
$var wire 5 -" Shamt [4:0] $end
$var wire 5 ." ALUControl [4:0] $end
$var reg 32 /" ALUResult [31:0] $end
$upscope $end
$scope module u_pcsrc $end
$var wire 1 o Zero $end
$var wire 1 ` JalrE $end
$var wire 1 a JalE $end
$var wire 1 h BranchE $end
$var wire 5 0" ALUControlE [4:0] $end
$var reg 2 1" PCSrcE [1:0] $end
$var reg 1 2" branch_taken $end
$upscope $end
$upscope $end
$scope module u_haz $end
$var wire 2 3" PCSrcE [1:0] $end
$var wire 5 4" RDM [4:0] $end
$var wire 1 3 RESET $end
$var wire 1 I RegWriteM $end
$var wire 1 5" lw_stall $end
$var wire 1 H RegWriteW $end
$var wire 5 6" RS2E [4:0] $end
$var wire 5 7" RS2D [4:0] $end
$var wire 5 8" RS1E [4:0] $end
$var wire 5 9" RS1D [4:0] $end
$var wire 5 :" RDW [4:0] $end
$var wire 5 ;" RDE [4:0] $end
$var wire 1 ] MemtoRegE $end
$var reg 1 g FlushD $end
$var reg 1 f FlushE $end
$var reg 2 <" ForwardAE [1:0] $end
$var reg 2 =" ForwardBE [1:0] $end
$var reg 1 A StallD $end
$var reg 1 @ StallF $end
$upscope $end
$scope module u_id $end
$var wire 1 2 CLK $end
$var wire 1 f ClearE $end
$var wire 1 3 RESET $end
$var wire 5 >" RS1D [4:0] $end
$var wire 5 ?" RS2D [4:0] $end
$var wire 5 @" shamt [4:0] $end
$var wire 5 A" rs2 [4:0] $end
$var wire 5 B" rs1 [4:0] $end
$var wire 5 C" rd [4:0] $end
$var wire 7 D" op [6:0] $end
$var wire 7 E" funct7 [6:0] $end
$var wire 3 F" funct3 [2:0] $end
$var wire 32 G" ResultW [31:0] $end
$var wire 2 H" ResultSrcD [1:0] $end
$var wire 1 H RegWriteW $end
$var wire 1 I" RegWriteD $end
$var wire 5 J" RDW [4:0] $end
$var wire 32 K" RD2D [31:0] $end
$var wire 32 L" RD1D [31:0] $end
$var wire 32 M" PCPlus4D [31:0] $end
$var wire 32 N" PCD [31:0] $end
$var wire 1 O" MemtoRegD $end
$var wire 1 P" MemWriteD $end
$var wire 1 Q" JalrD $end
$var wire 1 R" JalD $end
$var wire 32 S" InstrD [31:0] $end
$var wire 2 T" ImmSrcD [1:0] $end
$var wire 32 U" ImmExtD [31:0] $end
$var wire 1 V" BranchD $end
$var wire 1 W" ALUSrcD $end
$var wire 5 X" ALUControlD [4:0] $end
$var reg 5 Y" ALUControlE [4:0] $end
$var reg 1 j ALUSrcE $end
$var reg 1 h BranchE $end
$var reg 32 Z" Imm_Ext_E [31:0] $end
$var reg 1 a JalE $end
$var reg 1 ` JalrE $end
$var reg 1 _ MemWriteE $end
$var reg 1 ] MemtoRegE $end
$var reg 32 [" PCE [31:0] $end
$var reg 32 \" PCPlus4E [31:0] $end
$var reg 32 ]" RD1E [31:0] $end
$var reg 32 ^" RD2E [31:0] $end
$var reg 5 _" RDE [4:0] $end
$var reg 5 `" RS1E [4:0] $end
$var reg 5 a" RS2E [4:0] $end
$var reg 1 J RegWriteE $end
$var reg 2 b" ResultSrcE [1:0] $end
$var reg 5 c" ShamtE [4:0] $end
$scope module u_ctrl $end
$var wire 3 d" funct3 [2:0] $end
$var wire 7 e" funct7 [6:0] $end
$var wire 7 f" op [6:0] $end
$var wire 3 g" aluop_combo [2:0] $end
$var reg 5 h" ALUControl [4:0] $end
$var reg 2 i" ALUOp [1:0] $end
$var reg 1 W" ALUSrc $end
$var reg 1 V" Branch $end
$var reg 2 j" ImmSrc [1:0] $end
$var reg 1 R" Jal $end
$var reg 1 Q" Jalr $end
$var reg 1 P" MemWrite $end
$var reg 1 O" MemtoReg $end
$var reg 1 I" RegWrite $end
$var reg 2 k" ResultSrc [1:0] $end
$upscope $end
$scope module u_extend $end
$var wire 2 l" ImmSrc [1:0] $end
$var wire 25 m" Instr [31:7] $end
$var reg 32 n" ImmExt [31:0] $end
$upscope $end
$scope module u_regfile $end
$var wire 1 2 CLK $end
$var wire 5 o" read_rs1 [4:0] $end
$var wire 5 p" read_rs2 [4:0] $end
$var wire 5 q" write_reg [4:0] $end
$var wire 1 H write_enable $end
$var wire 32 r" write_data [31:0] $end
$var wire 32 s" read_data_rs2 [31:0] $end
$var wire 32 t" read_data_rs1 [31:0] $end
$upscope $end
$upscope $end
$scope module u_if $end
$var wire 1 2 CLK $end
$var wire 32 u" InStrF [31:0] $end
$var wire 2 v" PCSrcE [1:0] $end
$var wire 32 w" PCTargetE [31:0] $end
$var wire 1 3 RESET $end
$var wire 32 x" ResultE [31:0] $end
$var wire 1 g clearD $end
$var wire 1 5 enableD $end
$var wire 1 6 enableF $end
$var wire 32 y" PC_next [31:0] $end
$var wire 32 z" PC_current [31:0] $end
$var wire 32 {" PCPlus4F [31:0] $end
$var reg 32 |" InStrD [31:0] $end
$var reg 32 }" PCD [31:0] $end
$var reg 32 ~" PCPlus4D [31:0] $end
$var reg 32 !# PC_reg [31:0] $end
$upscope $end
$scope module u_ma $end
$var wire 32 "# AluResultM [31:0] $end
$var wire 1 2 CLK $end
$var wire 1 ^ MemWriteM $end
$var wire 32 ## PCPlus4M [31:0] $end
$var wire 5 $# RDM [4:0] $end
$var wire 5 %# RDM_out [4:0] $end
$var wire 1 3 RESET $end
$var wire 32 &# ReadData [31:0] $end
$var wire 1 I RegWriteM $end
$var wire 2 '# ResultSrcM [1:0] $end
$var wire 32 (# WriteDataM [31:0] $end
$var reg 32 )# AluResultW [31:0] $end
$var reg 32 *# PCPlus4W [31:0] $end
$var reg 5 +# RDW [4:0] $end
$var reg 32 ,# ReaddataW [31:0] $end
$var reg 1 H RegWriteW $end
$var reg 2 -# ResultSrcW [1:0] $end
$var integer 32 .# i [31:0] $end
$upscope $end
$scope module u_wb $end
$var wire 32 /# AluResultW [31:0] $end
$var wire 32 0# PCPlus4W [31:0] $end
$var wire 5 1# RDW [4:0] $end
$var wire 5 2# RDW_in [4:0] $end
$var wire 32 3# ReaddataW [31:0] $end
$var wire 1 H RegWriteW $end
$var wire 1 4# RegWriteW_out $end
$var wire 2 5# ResultSrcW [1:0] $end
$var reg 32 6# ResultW [31:0] $end
$upscope $end
$upscope $end
$upscope $end
$enddefinitions $end
$comment Show the parameter values. $end
$dumpall
$end
#0
$dumpvars
b0 6#
b0 5#
04#
b0 3#
b0 2#
b0 1#
b0 0#
b0 /#
b100000000 .#
b0 -#
b0 ,#
b0 +#
b0 *#
b0 )#
b0 (#
b0 '#
b10101010 &#
b0 %#
b0 $#
b0 ##
b0 "#
b0 !#
b0 ~"
b0 }"
b10011 |"
b100 {"
b0 z"
b100 y"
b0 x"
b0 w"
b0 v"
b10100000000000010010011 u"
b0 t"
b0 s"
b0 r"
b0 q"
b0 p"
b0 o"
b0 n"
b0 m"
b0 l"
b0 k"
b0 j"
b10 i"
b110 h"
b0 g"
b10011 f"
b0 e"
b0 d"
b0 c"
b0 b"
b0 a"
b0 `"
b0 _"
b0 ^"
b0 ]"
b0 \"
b0 ["
b0 Z"
b0 Y"
b110 X"
1W"
0V"
b0 U"
b0 T"
b10011 S"
0R"
0Q"
0P"
0O"
b0 N"
b0 M"
b0 L"
b0 K"
b0 J"
1I"
b0 H"
b0 G"
b0 F"
b0 E"
b10011 D"
b0 C"
b0 B"
b0 A"
b0 @"
b0 ?"
b0 >"
b0 ="
b0 <"
b0 ;"
b0 :"
b0 9"
b0 8"
b0 7"
b0 6"
05"
b0 4"
b0 3"
02"
b0 1"
b0 0"
b0 /"
b0 ."
b0 -"
b0 ,"
b0 +"
b0 *"
b0 )"
b0 ("
b0 '"
b0 &"
b0 %"
b0 $"
b0 #"
b0 ""
b0 !"
b0 ~
b0 }
b0 |
b0 {
b0 z
b0 y
b0 x
b0 w
b0 v
b0 u
b0 t
b0 s
b0 r
b0 q
b0 p
1o
b0 n
b0 m
b0 l
b0 k
0j
b0 i
0h
0g
0f
b0 e
b0 d
b0 c
b10011 b
0a
0`
0_
0^
0]
b0 \
b0 [
b0 Z
b0 Y
b0 X
b0 W
b0 V
b0 U
b0 T
b0 S
b0 R
b0 Q
b0 P
b0 O
b0 N
b0 M
b0 L
b0 K
0J
0I
0H
b0 G
b0 F
b0 E
b0 D
b0 C
b0 B
0A
0@
b0 ?
b0 >
b0 =
b0 <
b0 ;
b10011 :
b0 9
b0 8
b0 7
16
15
b0 4
13
02
b0 1
00
0/
0.
0-
0,
0+
0*
b0 )
b0 (
0'
0&
b10011 %
b0 $
b0 #
b0 "
b0 !
$end
#5000
12
#10000
02
#15000
b1000 y"
b101 U"
b101 n"
b101 K"
b101 s"
b1100000000000100010011 u"
b1010000000000001 m"
b101 @"
b1 C"
b101 M
b101 7"
b101 ?"
b101 A"
b101 p"
b1000 {"
b100 z"
b100 !#
b100 Z
b100 M"
b100 ~"
b10100000000000010010011 %
b10100000000000010010011 :
b10100000000000010010011 b
b10100000000000010010011 S"
b10100000000000010010011 |"
b110 l
b110 #"
b110 ."
b110 0"
b110 Y"
10
1j
1J
b10101010 K
b10101010 ,#
b10101010 3#
b1 4
12
03
#20000
02
#25000
b11 K"
b11 s"
0o
b101 1
b101 7
b101 G
b101 n
b101 x"
b101 ""
b101 /"
b11 U"
b11 n"
b1100 y"
b101 p
b101 ,"
b101 )"
b110000000000010 m"
b11 @"
b10 C"
b11 M
b11 7"
b11 ?"
b11 A"
b11 p"
b1000001000000110110011 u"
1I
b1 R
b1 v
b1 ;"
b1 _"
b101 L
b101 t
b101 6"
b101 a"
b100 Y
b100 {
b100 \"
b101 U
b101 y
b101 w"
b101 c
b101 }
b101 Z"
b101 S
b101 w
b101 ^"
b101 B
b101 q
b101 -"
b101 c"
b1000 Z
b1000 M"
b1000 ~"
b100 #
b100 <
b100 \
b100 N"
b100 }"
b1100000000000100010011 %
b1100000000000100010011 :
b1100000000000100010011 b
b1100000000000100010011 S"
b1100000000000100010011 |"
b1100 {"
b1000 z"
b1000 !#
b10 4
12
#30000
02
#35000
b1 L"
b1 t"
b10 K"
b10 s"
b110 X"
b110 h"
b10000 y"
b10 U"
b10 n"
b10 i"
0W"
1I"
b100 g"
b11 1
b11 7
b11 G
b11 n
b11 x"
b11 ""
b11 /"
b1000000001000011000001000110011 u"
b100000100000011 m"
b10 @"
b11 C"
b10 M
b10 7"
b10 ?"
b10 A"
b10 p"
b1 O
b1 9"
b1 >"
b1 B"
b1 o"
b110011 D"
b110011 f"
b11 p
b11 ,"
b11 )"
b10111011 &#
b10000 {"
b1100 z"
b1100 !#
b1100 Z
b1100 M"
b1100 ~"
b1000 #
b1000 <
b1000 \
b1000 N"
b1000 }"
b1000001000000110110011 %
b1000001000000110110011 :
b1000001000000110110011 b
b1000001000000110110011 S"
b1000001000000110110011 |"
b10 R
b10 v
b10 ;"
b10 _"
b11 L
b11 t
b11 6"
b11 a"
b1000 Y
b1000 {
b1000 \"
b11 c
b11 }
b11 Z"
b111 U
b111 y
b111 w"
b100 [
b100 |
b100 ["
b11 S
b11 w
b11 ^"
b11 B
b11 q
b11 -"
b11 c"
b100 X
b100 %"
b100 ##
b1 %#
b1 Q
b1 &"
b1 4"
b1 $#
b101 $
b101 ;
b101 ?
b101 *"
b101 (#
b101 k
b101 m
b101 $"
b101 "#
14#
1,
1H
b11 4
12
#40000
02
#45000
b11 L"
b11 t"
b111 X"
b111 h"
b11 p
b11 ,"
b1000 1
b1000 7
b1000 G
b1000 n
b1000 x"
b1000 ""
b1000 /"
b10000000010 U"
b10000000010 n"
b110 g"
b10100 y"
b101 !
b101 >
b101 C
b101 r
b101 G"
b101 r"
b101 6#
b10101010 &#
b10 (
b10 9
b10 d
b10 ~
b10 ="
b1 )
b1 8
b1 e
b1 !"
b1 <"
b11 )"
b101 ("
b101 +"
b100000000100001100000100 m"
b100 C"
b11 O
b11 9"
b11 >"
b11 B"
b11 o"
b100000 E"
b100000 e"
b1000001111001010110011 u"
b100 W
b100 *#
b100 0#
b1 1#
b1 "
b1 =
b1 P
b1 :"
b1 J"
b1 q"
b1 +#
b1 2#
b10111011 K
b10111011 ,#
b10111011 3#
b101 i
b101 )#
b101 /#
b1000 X
b1000 %"
b1000 ##
b10 %#
b10 Q
b10 &"
b10 4"
b10 $#
b11 $
b11 ;
b11 ?
b11 *"
b11 (#
b11 k
b11 m
b11 $"
b11 "#
b11 R
b11 v
b11 ;"
b11 _"
b10 L
b10 t
b10 6"
b10 a"
b1 N
b1 u
b1 8"
b1 `"
b1100 Y
b1100 {
b1100 \"
b10 c
b10 }
b10 Z"
b1010 U
b1010 y
b1010 w"
b1000 [
b1000 |
b1000 ["
b10 S
b10 w
b10 ^"
b1 T
b1 x
b1 ]"
b10 B
b10 q
b10 -"
b10 c"
00
0j
b10000 Z
b10000 M"
b10000 ~"
b1100 #
b1100 <
b1100 \
b1100 N"
b1100 }"
b1000000001000011000001000110011 %
b1000000001000011000001000110011 :
b1000000001000011000001000110011 b
b1000000001000011000001000110011 S"
b1000000001000011000001000110011 |"
b10100 {"
b10000 z"
b10000 !#
b100 4
12
#50000
02
#55000
b101 L"
b101 t"
b11 K"
b11 s"
b11000 y"
b10 U"
b10 n"
b100 g"
b10001 X"
b10001 h"
b1000001110001100110011 u"
b100000111100101 m"
b101 C"
b1 O
b1 9"
b1 >"
b1 B"
b1 o"
b0 E"
b0 e"
b111 F"
b111 d"
b101 1
b101 7
b101 G
b101 n
b101 x"
b101 ""
b101 /"
b1000 ("
b1000 +"
b11001100 &#
b1 (
b1 9
b1 d
b1 ~
b1 ="
b10 )
b10 8
b10 e
b10 !"
b10 <"
b11 !
b11 >
b11 C
b11 r
b11 G"
b11 r"
b11 6#
b11000 {"
b10100 z"
b10100 !#
b10100 Z
b10100 M"
b10100 ~"
b10000 #
b10000 <
b10000 \
b10000 N"
b10000 }"
b1000001111001010110011 %
b1000001111001010110011 :
b1000001111001010110011 b
b1000001111001010110011 S"
b1000001111001010110011 |"
b100 R
b100 v
b100 ;"
b100 _"
b11 N
b11 u
b11 8"
b11 `"
b10000 Y
b10000 {
b10000 \"
b10000000010 c
b10000000010 }
b10000000010 Z"
b10000001110 U
b10000001110 y
b10000001110 w"
b1100 [
b1100 |
b1100 ["
b11 T
b11 x
b11 ]"
b111 l
b111 #"
b111 ."
b111 0"
b111 Y"
b1100 X
b1100 %"
b1100 ##
b11 %#
b11 Q
b11 &"
b11 4"
b11 $#
b1000 k
b1000 m
b1000 $"
b1000 "#
b1000 W
b1000 *#
b1000 0#
b10 1#
b10 "
b10 =
b10 P
b10 :"
b10 J"
b10 q"
b10 +#
b10 2#
b10101010 K
b10101010 ,#
b10101010 3#
b11 i
b11 )#
b11 /#
b101 4
12
#60000
02
#65000
b10000 X"
b10000 h"
b11100 y"
b1000 !
b1000 >
b1000 C
b1000 r
b1000 G"
b1000 r"
b1000 6#
b10111011 &#
b0 (
b0 9
b0 d
b0 ~
b0 ="
b0 )
b0 8
b0 e
b0 !"
b0 <"
b101 ("
b101 +"
0o
b1 1
b1 7
b1 G
b1 n
b1 x"
b1 ""
b1 /"
b100000111000110 m"
b110 C"
b110 F"
b110 d"
b1000001100001110110011 u"
b1100 W
b1100 *#
b1100 0#
b11 1#
b11 "
b11 =
b11 P
b11 :"
b11 J"
b11 q"
b11 +#
b11 2#
b11001100 K
b11001100 ,#
b11001100 3#
b1000 i
b1000 )#
b1000 /#
b10000 X
b10000 %"
b10000 ##
b100 %#
b100 Q
b100 &"
b100 4"
b100 $#
b101 k
b101 m
b101 $"
b101 "#
b101 R
b101 v
b101 ;"
b101 _"
b1 N
b1 u
b1 8"
b1 `"
b10100 Y
b10100 {
b10100 \"
b10 c
b10 }
b10 Z"
b10010 U
b10010 y
b10010 w"
b10000 [
b10000 |
b10000 ["
b11 S
b11 w
b11 ^"
b101 T
b101 x
b101 ]"
b10001 l
b10001 #"
b10001 ."
b10001 0"
b10001 Y"
b11000 Z
b11000 M"
b11000 ~"
b10100 #
b10100 <
b10100 \
b10100 N"
b10100 }"
b1000001110001100110011 %
b1000001110001100110011 :
b1000001110001100110011 b
b1000001110001100110011 S"
b1000001110001100110011 |"
b11100 {"
b11000 z"
b11000 !#
b110 4
12
#70000
02
#75000
b100000 y"
b1011 X"
b1011 h"
b1000001001010000110011 u"
b100000110000111 m"
b111 C"
b100 F"
b100 d"
b111 1
b111 7
b111 G
b111 n
b111 x"
b111 ""
b111 /"
b10101010 &#
b101 !
b101 >
b101 C
b101 r
b101 G"
b101 r"
b101 6#
b100000 {"
b11100 z"
b11100 !#
b11100 Z
b11100 M"
b11100 ~"
b11000 #
b11000 <
b11000 \
b11000 N"
b11000 }"
b1000001100001110110011 %
b1000001100001110110011 :
b1000001100001110110011 b
b1000001100001110110011 S"
b1000001100001110110011 |"
b110 R
b110 v
b110 ;"
b110 _"
b11000 Y
b11000 {
b11000 \"
b10110 U
b10110 y
b10110 w"
b10100 [
b10100 |
b10100 ["
b10000 l
b10000 #"
b10000 ."
b10000 0"
b10000 Y"
b10100 X
b10100 %"
b10100 ##
b101 %#
b101 Q
b101 &"
b101 4"
b101 $#
b1 k
b1 m
b1 $"
b1 "#
b10000 W
b10000 *#
b10000 0#
b100 1#
b100 "
b100 =
b100 P
b100 :"
b100 J"
b100 q"
b100 +#
b100 2#
b10111011 K
b10111011 ,#
b10111011 3#
b101 i
b101 )#
b101 /#
b111 4
12
#80000
02
#85000
b1000 X"
b1000 h"
b100100 y"
b1 !
b1 >
b1 C
b1 r
b1 G"
b1 r"
b1 6#
b10111011 &#
b110 1
b110 7
b110 G
b110 n
b110 x"
b110 ""
b110 /"
b100000100101000 m"
b1000 C"
b1 F"
b1 d"
b110010000000000010010010011 u"
b10100 W
b10100 *#
b10100 0#
b101 1#
b101 "
b101 =
b101 P
b101 :"
b101 J"
b101 q"
b101 +#
b101 2#
b10101010 K
b10101010 ,#
b10101010 3#
b1 i
b1 )#
b1 /#
b11000 X
b11000 %"
b11000 ##
b110 %#
b110 Q
b110 &"
b110 4"
b110 $#
b111 k
b111 m
b111 $"
b111 "#
b111 R
b111 v
b111 ;"
b111 _"
b11100 Y
b11100 {
b11100 \"
b11010 U
b11010 y
b11010 w"
b11000 [
b11000 |
b11000 ["
b1011 l
b1011 #"
b1011 ."
b1011 0"
b1011 Y"
b100000 Z
b100000 M"
b100000 ~"
b11100 #
b11100 <
b11100 \
b11100 N"
b11100 }"
b1000001001010000110011 %
b1000001001010000110011 :
b1000001001010000110011 b
b1000001001010000110011 S"
b1000001001010000110011 |"
b100100 {"
b100000 z"
b100000 !#
b1000 4
12
#90000
02
#95000
b101 K"
b101 s"
b101000 y"
b1100100 U"
b1100100 n"
b0 L"
b0 t"
b110 X"
b110 h"
1W"
b10 i"
1I"
b0 g"
b101001000000000100011 u"
b11001000000000001001 m"
b100 @"
b1001 C"
b100 M
b100 7"
b100 ?"
b100 A"
b100 p"
b0 O
b0 9"
b0 >"
b0 B"
b0 o"
b11 E"
b11 e"
b0 F"
b0 d"
b10011 D"
b10011 f"
b101000 1
b101000 7
b101000 G
b101000 n
b101000 x"
b101000 ""
b101000 /"
b111 !
b111 >
b111 C
b111 r
b111 G"
b111 r"
b111 6#
b101000 {"
b100100 z"
b100100 !#
b100100 Z
b100100 M"
b100100 ~"
b100000 #
b100000 <
b100000 \
b100000 N"
b100000 }"
b110010000000000010010010011 %
b110010000000000010010010011 :
b110010000000000010010010011 b
b110010000000000010010010011 S"
b110010000000000010010010011 |"
b1000 R
b1000 v
b1000 ;"
b1000 _"
b100000 Y
b100000 {
b100000 \"
b11110 U
b11110 y
b11110 w"
b11100 [
b11100 |
b11100 ["
b1000 l
b1000 #"
b1000 ."
b1000 0"
b1000 Y"
b11100 X
b11100 %"
b11100 ##
b111 %#
b111 Q
b111 &"
b111 4"
b111 $#
b110 k
b110 m
b110 $"
b110 "#
b11000 W
b11000 *#
b11000 0#
b110 1#
b110 "
b110 =
b110 P
b110 :"
b110 J"
b110 q"
b110 +#
b110 2#
b10111011 K
b10111011 ,#
b10111011 3#
b111 i
b111 )#
b111 /#
b1001 4
12
#100000
02
#105000
b0 X"
b0 h"
b0 U"
b0 n"
b1001 L"
b1001 t"
b1 T"
b1 j"
b1 l"
1P"
b0 i"
1W"
0I"
b100 g"
b101100 y"
b110 !
b110 >
b110 C
b110 r
b110 G"
b110 r"
b110 6#
b0 &#
b101 )"
b0 ("
b0 +"
b1100100 1
b1100100 7
b1100100 G
b1100100 n
b1100100 x"
b1100100 ""
b1100100 /"
b1100100 p
b1100100 ,"
b10100100000000 m"
b1 @"
b0 C"
b1 M
b1 7"
b1 ?"
b1 A"
b1 p"
b1001 O
b1001 9"
b1001 >"
b1001 B"
b1001 o"
b0 E"
b0 e"
b100011 D"
b100011 f"
b1001000010100000011 u"
b11100 W
b11100 *#
b11100 0#
b111 1#
b111 "
b111 =
b111 P
b111 :"
b111 J"
b111 q"
b111 +#
b111 2#
b110 i
b110 )#
b110 /#
b100000 X
b100000 %"
b100000 ##
b1000 %#
b1000 Q
b1000 &"
b1000 4"
b1000 $#
b101000 k
b101000 m
b101000 $"
b101000 "#
b1001 R
b1001 v
b1001 ;"
b1001 _"
b100 L
b100 t
b100 6"
b100 a"
b0 N
b0 u
b0 8"
b0 `"
b100100 Y
b100100 {
b100100 \"
b1100100 c
b1100100 }
b1100100 Z"
b10000100 U
b10000100 y
b10000100 w"
b100000 [
b100000 |
b100000 ["
b101 S
b101 w
b101 ^"
b0 T
b0 x
b0 ]"
b100 B
b100 q
b100 -"
b100 c"
b110 l
b110 #"
b110 ."
b110 0"
b110 Y"
10
1j
b101000 Z
b101000 M"
b101000 ~"
b100100 #
b100100 <
b100100 \
b100100 N"
b100100 }"
b101001000000000100011 %
b101001000000000100011 :
b101001000000000100011 b
b101001000000000100011 S"
b101001000000000100011 |"
b101100 {"
b101000 z"
b101000 !#
b1010 4
12
#110000
02
#115000
b110000 y"
b0 K"
b0 s"
1O"
b1 H"
b1 k"
1I"
b0 T"
b0 j"
b0 l"
1W"
0P"
b0 g"
b101010000010100010011 u"
b100100001010 m"
b0 @"
b1010 C"
b0 M
b0 7"
b0 ?"
b0 A"
b0 p"
b11 D"
b11 f"
b0 p
b0 ,"
b1100100 1
b1100100 7
b1100100 G
b1100100 n
b1100100 x"
b1100100 ""
b1100100 /"
b1100100 ("
b1100100 +"
b10 )
b10 8
b10 e
b10 !"
b10 <"
b101000 !
b101000 >
b101000 C
b101000 r
b101000 G"
b101000 r"
b101000 6#
b110000 {"
b101100 z"
b101100 !#
b101100 Z
b101100 M"
b101100 ~"
b101000 #
b101000 <
b101000 \
b101000 N"
b101000 }"
b1001000010100000011 %
b1001000010100000011 :
b1001000010100000011 b
b1001000010100000011 S"
b1001000010100000011 |"
b0 R
b0 v
b0 ;"
b0 _"
b1 L
b1 t
b1 6"
b1 a"
b1001 N
b1001 u
b1001 8"
b1001 `"
b101000 Y
b101000 {
b101000 \"
b0 c
b0 }
b0 Z"
b100100 U
b100100 y
b100100 w"
b100100 [
b100100 |
b100100 ["
b1001 T
b1001 x
b1001 ]"
b1 B
b1 q
b1 -"
b1 c"
b0 l
b0 #"
b0 ."
b0 0"
b0 Y"
1_
0J
b100100 X
b100100 %"
b100100 ##
b1001 %#
b1001 Q
b1001 &"
b1001 4"
b1001 $#
b101 $
b101 ;
b101 ?
b101 *"
b101 (#
b1100100 k
b1100100 m
b1100100 $"
b1100100 "#
b100000 W
b100000 *#
b100000 0#
b1000 1#
b1000 "
b1000 =
b1000 P
b1000 :"
b1000 J"
b1000 q"
b1000 +#
b1000 2#
b0 K
b0 ,#
b0 3#
b101000 i
b101000 )#
b101000 /#
b1011 4
12
#120000
02
